[
 [
  "der", 
  1629554127
 ], 
 [
  "der_DET", 
  1547703264
 ], 
 [
  "die", 
  1351205142
 ], 
 [
  "und", 
  1156942495
 ], 
 [
  "und_CONJ", 
  1156915560
 ], 
 [
  "die_DET", 
  1151189741
 ], 
 [
  "in", 
  775585597
 ], 
 [
  "in_ADP", 
  758823180
 ], 
 [
  "den", 
  507236522
 ], 
 [
  "den_DET", 
  491995370
 ], 
 [
  "des", 
  491579233
 ], 
 [
  "des_DET", 
  486756306
 ], 
 [
  "zu", 
  469628287
 ], 
 [
  "von", 
  461784714
 ], 
 [
  "von_ADP", 
  461744192
 ], 
 [
  "das", 
  356884513
 ], 
 [
  "ist", 
  347122321
 ], 
 [
  "ist_VERB", 
  347122321
 ], 
 [
  "zu_PRT", 
  334300978
 ], 
 [
  "sich", 
  325309061
 ], 
 [
  "sich_PRON", 
  325308936
 ], 
 [
  "nicht", 
  309274823
 ], 
 [
  "nicht_PRT", 
  308922322
 ], 
 [
  "mit", 
  292615776
 ], 
 [
  "dem", 
  288659981
 ], 
 [
  "mit_ADP", 
  287240163
 ], 
 [
  "das_DET", 
  277810743
 ], 
 [
  "auf", 
  276216019
 ], 
 [
  "dem_DET", 
  260668292
 ], 
 [
  "auf_ADP", 
  259655614
 ], 
 [
  "eine", 
  251576910
 ], 
 [
  "eine_DET", 
  246994652
 ], 
 [
  "als", 
  246767200
 ], 
 [
  "im_ADP", 
  243317875
 ], 
 [
  "im", 
  243317875
 ], 
 [
  "f\u00fcr", 
  234374430
 ], 
 [
  "f\u00fcr_ADP", 
  234374156
 ], 
 [
  "Die", 
  228750709
 ], 
 [
  "Die_DET", 
  227808495
 ], 
 [
  "auch", 
  213015575
 ], 
 [
  "auch_ADV", 
  212928470
 ], 
 [
  "da\u00df", 
  207893011
 ], 
 [
  "da\u00df_CONJ", 
  207751616
 ], 
 [
  "ein", 
  203817296
 ], 
 [
  "die_PRON", 
  200015401
 ], 
 [
  "ein_DET", 
  188390903
 ], 
 [
  "an", 
  185712438
 ], 
 [
  "es", 
  182584481
 ], 
 [
  "es_PRON", 
  182584480
 ], 
 [
  "sie", 
  178378912
 ], 
 [
  "sie_PRON", 
  178378912
 ], 
 [
  "werden", 
  165817764
 ], 
 [
  "werden_VERB", 
  165817519
 ], 
 [
  "an_ADP", 
  162982851
 ], 
 [
  "durch", 
  156272234
 ], 
 [
  "durch_ADP", 
  154219829
 ], 
 [
  "so", 
  152578332
 ], 
 [
  "so_ADV", 
  152465050
 ], 
 [
  "er", 
  148134573
 ], 
 [
  "er_PRON", 
  147956189
 ], 
 [
  "aus", 
  144255039
 ], 
 [
  "einer", 
  141159617
 ], 
 [
  "bei", 
  141016778
 ], 
 [
  "nach", 
  140616685
 ], 
 [
  "wie", 
  139850784
 ], 
 [
  "bei_ADP", 
  138388495
 ], 
 [
  "einer_DET", 
  136687808
 ], 
 [
  "oder", 
  135804179
 ], 
 [
  "oder_CONJ", 
  135804179
 ], 
 [
  "als_CONJ", 
  135006246
 ], 
 [
  "nach_ADP", 
  134803325
 ], 
 [
  "nur", 
  134381713
 ], 
 [
  "nur_ADV", 
  134381399
 ], 
 [
  "zu_ADP", 
  133388223
 ], 
 [
  "wird", 
  132757376
 ], 
 [
  "wird_VERB", 
  132757376
 ], 
 [
  "sind", 
  131124596
 ], 
 [
  "sind_VERB", 
  131100742
 ], 
 [
  "aus_ADP", 
  124532380
 ], 
 [
  "aber", 
  117960019
 ], 
 [
  "als_ADP", 
  111760954
 ], 
 [
  "zur", 
  109335132
 ], 
 [
  "zur_ADP", 
  109312967
 ], 
 [
  "hat_VERB", 
  107180340
 ], 
 [
  "hat", 
  107180340
 ], 
 [
  "\u00fcber", 
  105183925
 ], 
 [
  "noch", 
  102385373
 ], 
 [
  "war", 
  99635256
 ], 
 [
  "\u00fcber_ADP", 
  99503682
 ], 
 [
  "war_VERB", 
  99499418
 ], 
 [
  "man", 
  99019672
 ], 
 [
  "man_PRON", 
  98722679
 ], 
 [
  "noch_ADV", 
  91629056
 ], 
 [
  "Der", 
  90449324
 ], 
 [
  "Der_DET", 
  89806441
 ], 
 [
  "um", 
  88557617
 ], 
 [
  "einen", 
  85662260
 ], 
 [
  "zum", 
  82333032
 ], 
 [
  "einen_DET", 
  82119729
 ], 
 [
  "zum_ADP", 
  81912207
 ], 
 [
  "der_PRON", 
  81850863
 ], 
 [
  "dieser", 
  81514058
 ], 
 [
  "dieser_PRON", 
  81514058
 ], 
 [
  "aber_ADV", 
  81299100
 ], 
 [
  "einem", 
  80899133
 ], 
 [
  "einem_DET", 
  79461126
 ], 
 [
  "das_PRON", 
  79072705
 ], 
 [
  "wir", 
  78220722
 ], 
 [
  "wir_PRON", 
  77973752
 ], 
 [
  "diese_PRON", 
  77837318
 ], 
 [
  "diese", 
  77837318
 ], 
 [
  "kann", 
  77176729
 ], 
 [
  "kann_VERB", 
  77176648
 ], 
 [
  "S.", 
  75961626
 ], 
 [
  "wenn", 
  75626396
 ], 
 [
  "wenn_CONJ", 
  75622168
 ], 
 [
  "sein", 
  75219444
 ], 
 [
  "Das", 
  73603568
 ], 
 [
  "ich", 
  73212003
 ], 
 [
  "ich_PRON", 
  73211928
 ], 
 [
  "haben", 
  73047549
 ], 
 [
  "haben_VERB", 
  73047549
 ], 
 [
  "S._NOUN", 
  71559614
 ], 
 [
  "wie_PRON", 
  71246102
 ], 
 [
  "wie_CONJ", 
  68604682
 ], 
 [
  "vor", 
  68096550
 ], 
 [
  "In", 
  66818082
 ], 
 [
  "vom_ADP", 
  65669715
 ], 
 [
  "vom", 
  65669715
 ], 
 [
  "In_ADP", 
  65027794
 ], 
 [
  "wurde", 
  64585284
 ], 
 [
  "wurde_VERB", 
  64585284
 ], 
 [
  "Es", 
  61647941
 ], 
 [
  "Es_PRON", 
  61636867
 ], 
 [
  "eines", 
  59553107
 ], 
 [
  "unter", 
  59525588
 ], 
 [
  "am", 
  59305994
 ], 
 [
  "unter_ADP", 
  58437687
 ], 
 [
  "eines_DET", 
  57320368
 ], 
 [
  "mehr", 
  56752074
 ], 
 [
  "bis", 
  55700659
 ], 
 [
  "Das_DET", 
  55607431
 ], 
 [
  "vor_ADP", 
  54443660
 ], 
 [
  "sein_VERB", 
  53005447
 ], 
 [
  "am_ADP", 
  52932984
 ], 
 [
  "welche_PRON", 
  51671334
 ], 
 [
  "welche", 
  51671334
 ], 
 [
  "sondern_CONJ", 
  51331969
 ], 
 [
  "sondern", 
  51331969
 ], 
 [
  "seiner", 
  50655794
 ], 
 [
  "seiner_PRON", 
  50655794
 ], 
 [
  "seine_PRON", 
  49637124
 ], 
 [
  "seine", 
  49637124
 ], 
 [
  "dass_CONJ", 
  48346137
 ], 
 [
  "dass", 
  48346137
 ], 
 [
  "ihre_PRON", 
  48065693
 ], 
 [
  "ihre", 
  48065693
 ], 
 [
  "selbst", 
  47152375
 ], 
 [
  "selbst_ADV", 
  47133225
 ], 
 [
  "hier", 
  46330704
 ], 
 [
  "hier_ADV", 
  46330704
 ], 
 [
  "k\u00f6nnen", 
  46216283
 ], 
 [
  "k\u00f6nnen_VERB", 
  46215745
 ], 
 [
  "um_CONJ", 
  45856101
 ], 
 [
  "Sie_PRON", 
  45576001
 ], 
 [
  "Sie", 
  45576001
 ], 
 [
  "was", 
  45473126
 ], 
 [
  "gegen", 
  45287935
 ], 
 [
  "gegen_ADP", 
  45142411
 ], 
 [
  "the", 
  45137133
 ], 
 [
  "the_X", 
  45008417
 ], 
 [
  "zwischen", 
  44669834
 ], 
 [
  "zwischen_ADP", 
  44185178
 ], 
 [
  "Zeit", 
  43864505
 ], 
 [
  "was_PRON", 
  43819555
 ], 
 [
  "Zeit_NOUN", 
  43741931
 ], 
 [
  "ihm", 
  43432741
 ], 
 [
  "ihm_PRON", 
  43432741
 ], 
 [
  "dann", 
  43076898
 ], 
 [
  "dann_ADV", 
  43068310
 ], 
 [
  "hatte", 
  42813317
 ], 
 [
  "hatte_VERB", 
  42813317
 ], 
 [
  "schon_ADV", 
  42804205
 ], 
 [
  "schon", 
  42804205
 ], 
 [
  "sehr_ADV", 
  42437865
 ], 
 [
  "sehr", 
  42437865
 ], 
 [
  "of", 
  42315657
 ], 
 [
  "ihrer_PRON", 
  42134132
 ], 
 [
  "ihrer", 
  42134132
 ], 
 [
  "uns", 
  42034923
 ], 
 [
  "uns_PRON", 
  42034923
 ], 
 [
  "\u00ab_NUM", 
  41683802
 ], 
 [
  "of_X", 
  41352310
 ], 
 [
  "\u00bb_NUM", 
  41147748
 ], 
 [
  "um_ADP", 
  41145543
 ], 
 [
  "ohne", 
  40003986
 ], 
 [
  "alle", 
  38325013
 ], 
 [
  "alle_PRON", 
  38323934
 ], 
 [
  "bis_ADP", 
  37302559
 ], 
 [
  "de", 
  37280940
 ], 
 [
  "immer_ADV", 
  37009456
 ], 
 [
  "immer", 
  37009456
 ], 
 [
  "doch", 
  36745346
 ], 
 [
  "da", 
  36742817
 ], 
 [
  "aber_CONJ", 
  36660919
 ], 
 [
  "also", 
  36556408
 ], 
 [
  "also_ADV", 
  36550031
 ], 
 [
  "diesem", 
  36474055
 ], 
 [
  "diesem_PRON", 
  36474055
 ], 
 [
  "sei", 
  35288043
 ], 
 [
  "sei_VERB", 
  35274252
 ], 
 [
  "waren", 
  34916121
 ], 
 [
  "waren_VERB", 
  34915962
 ], 
 [
  "de_X", 
  34469517
 ], 
 [
  "mehr_ADV", 
  33877208
 ], 
 [
  "wieder", 
  33352993
 ], 
 [
  "keine", 
  33343557
 ], 
 [
  "keine_PRON", 
  33343557
 ], 
 [
  "dieses_PRON", 
  32975721
 ], 
 [
  "dieses", 
  32975721
 ], 
 [
  "ihr", 
  32857567
 ], 
 [
  "ihr_PRON", 
  32857567
 ], 
 [
  "anderen", 
  32735805
 ], 
 [
  "wurden", 
  32455346
 ], 
 [
  "wurden_VERB", 
  32455346
 ], 
 [
  "ganz", 
  32084378
 ], 
 [
  "wieder_ADV", 
  31825976
 ], 
 [
  "mu\u00df", 
  31137837
 ], 
 [
  "mu\u00df_VERB", 
  31136019
 ], 
 [
  "ganz_ADV", 
  31114501
 ], 
 [
  "diesen", 
  30655460
 ], 
 [
  "diesen_PRON", 
  30655460
 ], 
 [
  "worden", 
  30294328
 ], 
 [
  "worden_VERB", 
  30294328
 ], 
 [
  "ohne_ADP", 
  29938338
 ], 
 [
  "Er", 
  29788973
 ], 
 [
  "Er_PRON", 
  29646880
 ], 
 [
  "Ich", 
  29640977
 ], 
 [
  "Diese", 
  28814560
 ], 
 [
  "Diese_PRON", 
  28814560
 ], 
 [
  "Jahre", 
  28663113
 ], 
 [
  "Jahre_NOUN", 
  28663113
 ], 
 [
  "a", 
  28419273
 ], 
 [
  "Ich_PRON", 
  28378591
 ], 
 [
  "ihn", 
  28357278
 ], 
 [
  "ihn_PRON", 
  28357278
 ], 
 [
  "doch_ADV", 
  28291185
 ], 
 [
  "nun", 
  28251151
 ], 
 [
  "nun_ADV", 
  28251149
 ], 
 [
  "dem_PRON", 
  27991689
 ], 
 [
  "weil", 
  27598436
 ], 
 [
  "weil_CONJ", 
  27598391
 ], 
 [
  "a_X", 
  27552994
 ], 
 [
  "Menschen", 
  27507889
 ], 
 [
  "Menschen_NOUN", 
  27421246
 ], 
 [
  "habe", 
  27208043
 ], 
 [
  "habe_VERB", 
  27208043
 ], 
 [
  "Im", 
  27113482
 ], 
 [
  "Im_ADP", 
  27087381
 ], 
 [
  "deren", 
  26735125
 ], 
 [
  "deren_PRON", 
  26735125
 ], 
 [
  "anderen_ADJ", 
  26679249
 ], 
 [
  "seinen", 
  25763443
 ], 
 [
  "seinen_PRON", 
  25763443
 ], 
 [
  "damit", 
  25290941
 ], 
 [
  "wo", 
  25265597
 ], 
 [
  "wo_PRON", 
  25265458
 ], 
 [
  "denn", 
  24796275
 ], 
 [
  "ihren_PRON", 
  24786240
 ], 
 [
  "ihren", 
  24786240
 ], 
 [
  "Frage", 
  24747529
 ], 
 [
  "Frage_NOUN", 
  24737926
 ], 
 [
  "and", 
  24621587
 ], 
 [
  "zwei", 
  24241562
 ], 
 [
  "zwei_NUM", 
  24191574
 ], 
 [
  "mir", 
  24128057
 ], 
 [
  "mir_PRON", 
  24125042
 ], 
 [
  "andere", 
  23889768
 ], 
 [
  "denen", 
  23864988
 ], 
 [
  "denen_PRON", 
  23864988
 ], 
 [
  "da_CONJ", 
  23583436
 ], 
 [
  "jedoch", 
  23345994
 ], 
 [
  "deutschen", 
  23334808
 ], 
 [
  "deutschen_ADJ", 
  23334696
 ], 
 [
  "ersten", 
  23153391
 ], 
 [
  "soll", 
  23049339
 ], 
 [
  "soll_VERB", 
  23048072
 ], 
 [
  "allen", 
  22983604
 ], 
 [
  "allen_PRON", 
  22983583
 ], 
 [
  "mehr_PRON", 
  22874861
 ], 
 [
  "jedoch_ADV", 
  22863297
 ], 
 [
  "ersten_ADJ", 
  22838351
 ], 
 [
  "beiden", 
  22747239
 ], 
 [
  "beiden_PRON", 
  22747239
 ], 
 [
  "w\u00e4hrend", 
  22667975
 ], 
 [
  "Eine", 
  22542855
 ], 
 [
  "an_PRT", 
  22539029
 ], 
 [
  "Ein", 
  22486217
 ], 
 [
  "So", 
  22427772
 ], 
 [
  "So_ADV", 
  22410411
 ], 
 [
  "sein_PRON", 
  22213997
 ], 
 [
  "Eine_DET", 
  21941558
 ], 
 [
  "ihnen", 
  21849129
 ], 
 [
  "ihnen_PRON", 
  21849129
 ], 
 [
  "Ein_DET", 
  21808537
 ], 
 [
  "ob", 
  21785759
 ], 
 [
  "m\u00fcssen_VERB", 
  21742216
 ], 
 [
  "m\u00fcssen", 
  21742216
 ], 
 [
  "Auch", 
  21733122
 ], 
 [
  "ob_CONJ", 
  21733014
 ], 
 [
  "Auch_ADV", 
  21712733
 ], 
 [
  "Aber", 
  21609453
 ], 
 [
  "Wir", 
  21528626
 ], 
 [
  "Wir_PRON", 
  21451399
 ], 
 [
  "seinem", 
  21353084
 ], 
 [
  "seinem_PRON", 
  21353084
 ], 
 [
  "Entwicklung", 
  21213808
 ], 
 [
  "Entwicklung_NOUN", 
  21213808
 ], 
 [
  "Aber_CONJ", 
  21194453
 ], 
 [
  "Wenn_CONJ", 
  21148263
 ], 
 [
  "Wenn", 
  21148263
 ], 
 [
  "zwar", 
  20837908
 ], 
 [
  "Weise", 
  20816953
 ], 
 [
  "Weise_NOUN", 
  20814447
 ], 
 [
  "w\u00fcrde", 
  20791506
 ], 
 [
  "w\u00fcrde_VERB", 
  20791338
 ], 
 [
  "damit_PRON", 
  20647510
 ], 
 [
  "etwas", 
  20630244
 ], 
 [
  "dies", 
  20536228
 ], 
 [
  "dies_PRON", 
  20527774
 ], 
 [
  "Und", 
  20504323
 ], 
 [
  "Und_CONJ", 
  20490470
 ], 
 [
  "lassen", 
  20475751
 ], 
 [
  "lassen_VERB", 
  20475751
 ], 
 [
  "zwar_ADV", 
  20421051
 ], 
 [
  "Art", 
  20364983
 ], 
 [
  "erst_ADV", 
  20290891
 ], 
 [
  "erst", 
  20290891
 ], 
 [
  "dessen_PRON", 
  20209675
 ], 
 [
  "dessen", 
  20209675
 ], 
 [
  "Art_NOUN", 
  20136573
 ], 
 [
  "Arbeit", 
  20051639
 ], 
 [
  "Arbeit_NOUN", 
  20051639
 ], 
 [
  "Welt", 
  20027751
 ], 
 [
  "etwa", 
  19949907
 ], 
 [
  "etwa_ADV", 
  19949907
 ], 
 [
  "Welt_NOUN", 
  19890849
 ], 
 [
  "w\u00e4re", 
  19831406
 ], 
 [
  "w\u00e4re_VERB", 
  19831406
 ], 
 [
  "wohl", 
  19775458
 ], 
 [
  "wohl_ADV", 
  19775161
 ], 
 [
  "Berlin", 
  19740029
 ], 
 [
  "Berlin_NOUN", 
  19714917
 ], 
 [
  "bereits", 
  19700823
 ], 
 [
  "bereits_ADV", 
  19700823
 ], 
 [
  "Bei", 
  19613413
 ], 
 [
  "B._NOUN", 
  19609185
 ], 
 [
  "B.", 
  19609185
 ], 
 [
  "aus_PRT", 
  19586396
 ], 
 [
  "besonders", 
  19585166
 ], 
 [
  "besonders_ADV", 
  19585166
 ], 
 [
  "Bei_ADP", 
  19537765
 ], 
 [
  "konnte_VERB", 
  19316070
 ], 
 [
  "konnte", 
  19316070
 ], 
 [
  "aller_PRON", 
  19256301
 ], 
 [
  "aller", 
  19256301
 ], 
 [
  "solche_PRON", 
  19132811
 ], 
 [
  "solche", 
  19132811
 ], 
 [
  "sowie_CONJ", 
  19018359
 ], 
 [
  "sowie", 
  19018359
 ], 
 [
  "allem_PRON", 
  18852401
 ], 
 [
  "allem", 
  18852401
 ], 
 [
  "machen_VERB", 
  18751369
 ], 
 [
  "machen", 
  18751369
 ], 
 [
  "gibt", 
  18749369
 ], 
 [
  "gibt_VERB", 
  18749369
 ], 
 [
  "\u00a7_NOUN", 
  18704180
 ], 
 [
  "Dr._NOUN", 
  18679609
 ], 
 [
  "Dr.", 
  18679609
 ], 
 [
  "Bedeutung", 
  18652071
 ], 
 [
  "Bedeutung_NOUN", 
  18652071
 ], 
 [
  "ja", 
  18592364
 ], 
 [
  "Geschichte", 
  18366583
 ], 
 [
  "Geschichte_NOUN", 
  18366583
 ], 
 [
  "Teil", 
  18365187
 ], 
 [
  "Teil_NOUN", 
  18356972
 ], 
 [
  "Deutschland_NOUN", 
  18281444
 ], 
 [
  "Deutschland", 
  18281444
 ], 
 [
  "Von", 
  18265086
 ], 
 [
  "Von_ADP", 
  18246719
 ], 
 [
  "nichts", 
  18164823
 ], 
 [
  "nichts_PRON", 
  18164823
 ], 
 [
  "Form", 
  18135654
 ], 
 [
  "Form_NOUN", 
  18135654
 ], 
 [
  "Leben", 
  18094771
 ], 
 [
  "einzelnen", 
  18018046
 ], 
 [
  "Leben_NOUN", 
  18011316
 ], 
 [
  "Das_PRON", 
  17994930
 ], 
 [
  "denn_CONJ", 
  17952326
 ], 
 [
  "Man", 
  17779826
 ], 
 [
  "neuen", 
  17727435
 ], 
 [
  "neuen_ADJ", 
  17727421
 ], 
 [
  "Jahren", 
  17661918
 ], 
 [
  "Jahren_NOUN", 
  17661918
 ], 
 [
  "Man_PRON", 
  17532282
 ], 
 [
  "gegen\u00fcber", 
  17474450
 ], 
 [
  "jetzt_ADV", 
  17422671
 ], 
 [
  "jetzt", 
  17422671
 ], 
 [
  "mich_PRON", 
  17347466
 ], 
 [
  "mich", 
  17347466
 ], 
 [
  "einzelnen_ADJ", 
  17245852
 ], 
 [
  "neue_ADJ", 
  17240862
 ], 
 [
  "neue", 
  17240862
 ], 
 [
  "viel", 
  17201495
 ], 
 [
  "kein", 
  17087355
 ], 
 [
  "kein_PRON", 
  17087355
 ], 
 [
  "daher", 
  16941780
 ], 
 [
  "daher_PRON", 
  16908533
 ], 
 [
  "et", 
  16902027
 ], 
 [
  "andere_ADJ", 
  16822517
 ], 
 [
  "in_X", 
  16701382
 ], 
 [
  "einmal", 
  16485317
 ], 
 [
  "einmal_ADV", 
  16477177
 ], 
 [
  "gro\u00dfen", 
  16461999
 ], 
 [
  "gro\u00dfen_ADJ", 
  16461980
 ], 
 [
  "beim_ADP", 
  16412202
 ], 
 [
  "beim", 
  16412202
 ], 
 [
  "auf_PRT", 
  16399403
 ], 
 [
  "dazu", 
  16359603
 ], 
 [
  "bis_CONJ", 
  16232438
 ], 
 [
  "Mit", 
  16213729
 ], 
 [
  "dazu_PRON", 
  16160180
 ], 
 [
  "Seite", 
  16137487
 ], 
 [
  "Seite_NOUN", 
  16137487
 ], 
 [
  "Mit_ADP", 
  15970101
 ], 
 [
  "d.", 
  15906802
 ], 
 [
  "Recht", 
  15854356
 ], 
 [
  "ja_ADV", 
  15785317
 ], 
 [
  "Nach", 
  15782424
 ], 
 [
  "Recht_NOUN", 
  15778026
 ], 
 [
  "heute", 
  15765660
 ], 
 [
  "heute_ADV", 
  15765635
 ], 
 [
  "Gesellschaft_NOUN", 
  15726216
 ], 
 [
  "Gesellschaft", 
  15726216
 ], 
 [
  "la", 
  15720576
 ], 
 [
  "darauf_PRON", 
  15708687
 ], 
 [
  "darauf", 
  15708687
 ], 
 [
  "gegen\u00fcber_ADP", 
  15646830
 ], 
 [
  "sollte_VERB", 
  15612098
 ], 
 [
  "sollte", 
  15612098
 ], 
 [
  "la_X", 
  15590335
 ], 
 [
  "drei", 
  15577128
 ], 
 [
  "seit", 
  15565598
 ], 
 [
  "drei_NUM", 
  15553217
 ], 
 [
  "ab", 
  15536155
 ], 
 [
  "Wie", 
  15354199
 ], 
 [
  "Nach_ADP", 
  15313599
 ], 
 [
  "den_PRON", 
  15240178
 ], 
 [
  "liegt", 
  15226996
 ], 
 [
  "liegt_VERB", 
  15226996
 ], 
 [
  "F\u00fcr", 
  15144014
 ], 
 [
  "et_X", 
  15104566
 ], 
 [
  "will", 
  15096875
 ], 
 [
  "I", 
  15074222
 ], 
 [
  "Fall_NOUN", 
  15062997
 ], 
 [
  "Fall", 
  15062997
 ], 
 [
  "Als", 
  15026849
 ], 
 [
  "z.", 
  15016823
 ], 
 [
  "z._ADP", 
  14987378
 ], 
 [
  "F\u00fcr_ADP", 
  14978014
 ], 
 [
  "ein_PRT", 
  14887508
 ], 
 [
  "Nr._NOUN", 
  14834827
 ], 
 [
  "Nr.", 
  14834827
 ], 
 [
  "Da", 
  14831621
 ], 
 [
  "w\u00e4hrend_CONJ", 
  14810701
 ], 
 [
  "etwas_PRON", 
  14806927
 ], 
 [
  "kommt_VERB", 
  14745032
 ], 
 [
  "kommt", 
  14745032
 ], 
 [
  "Auf", 
  14726051
 ], 
 [
  "seit_ADP", 
  14723873
 ], 
 [
  "hatten", 
  14663587
 ], 
 [
  "hatten_VERB", 
  14663587
 ], 
 [
  "alles", 
  14651490
 ], 
 [
  "alles_PRON", 
  14651490
 ], 
 [
  "to", 
  14615620
 ], 
 [
  "allein_ADV", 
  14503784
 ], 
 [
  "allein", 
  14503784
 ], 
 [
  "u.", 
  14364293
 ], 
 [
  "u._ADP", 
  14364293
 ], 
 [
  "gerade", 
  14358075
 ], 
 [
  "gerade_ADV", 
  14318368
 ], 
 [
  "m\u00f6glich_ADJ", 
  14314474
 ], 
 [
  "m\u00f6glich", 
  14314474
 ], 
 [
  "to_X", 
  14309840
 ], 
 [
  "will_VERB", 
  14301780
 ], 
 [
  "politischen", 
  14298080
 ], 
 [
  "politischen_ADJ", 
  14298080
 ], 
 [
  "Natur", 
  14232234
 ], 
 [
  "\u00fcberhaupt_ADV", 
  14221641
 ], 
 [
  "\u00fcberhaupt", 
  14221641
 ], 
 [
  "Regierung", 
  14179690
 ], 
 [
  "Regierung_NOUN", 
  14179690
 ], 
 [
  "welcher", 
  14162785
 ], 
 [
  "weniger", 
  14162183
 ], 
 [
  "ihrem_PRON", 
  14113012
 ], 
 [
  "ihrem", 
  14113012
 ], 
 [
  "dabei", 
  14078248
 ], 
 [
  "welcher_PRON", 
  14060148
 ], 
 [
  "steht_VERB", 
  14059617
 ], 
 [
  "steht", 
  14059617
 ], 
 [
  "finden_VERB", 
  14038459
 ], 
 [
  "finden", 
  14038459
 ], 
 [
  "Natur_NOUN", 
  14020048
 ], 
 [
  "Auf_ADP", 
  14003461
 ], 
 [
  "geht_VERB", 
  13915284
 ], 
 [
  "geht", 
  13915284
 ], 
 [
  "eben_ADV", 
  13914287
 ], 
 [
  "eben", 
  13914287
 ], 
 [
  "Sinne", 
  13886159
 ], 
 [
  "Sinne_NOUN", 
  13886159
 ], 
 [
  "Grund", 
  13868556
 ], 
 [
  "Grund_NOUN", 
  13868556
 ], 
 [
  "dadurch_PRON", 
  13812636
 ], 
 [
  "dadurch", 
  13812636
 ], 
 [
  "dabei_PRON", 
  13797254
 ], 
 [
  "jeder_PRON", 
  13767019
 ], 
 [
  "jeder", 
  13767019
 ], 
 [
  "Ende", 
  13733959
 ], 
 [
  "Ende_NOUN", 
  13733959
 ], 
 [
  "weiter", 
  13598643
 ], 
 [
  "l\u00e4\u00dft", 
  13567334
 ], 
 [
  "l\u00e4\u00dft_VERB", 
  13567334
 ], 
 [
  "gar", 
  13503618
 ], 
 [
  "gar_ADV", 
  13503618
 ], 
 [
  "gewesen", 
  13456441
 ], 
 [
  "gewesen_VERB", 
  13456441
 ], 
 [
  "verschiedenen_ADJ", 
  13374714
 ], 
 [
  "verschiedenen", 
  13374714
 ], 
 [
  "oft_ADV", 
  13243164
 ], 
 [
  "oft", 
  13243164
 ], 
 [
  "je", 
  13125287
 ], 
 [
  "Wie_PRON", 
  13114366
 ], 
 [
  "kommen", 
  13026263
 ], 
 [
  "kommen_VERB", 
  13018612
 ], 
 [
  "v.", 
  13004745
 ], 
 [
  "unserer_PRON", 
  12959028
 ], 
 [
  "unserer", 
  12959028
 ], 
 [
  "fast", 
  12932090
 ], 
 [
  "fast_ADV", 
  12932024
 ], 
 [
  "a.", 
  12845902
 ], 
 [
  "eigenen", 
  12733076
 ], 
 [
  "eigenen_ADJ", 
  12733065
 ], 
 [
  "gemacht", 
  12693637
 ], 
 [
  "gemacht_VERB", 
  12693637
 ], 
 [
  "letzten", 
  12548516
 ], 
 [
  "letzten_ADJ", 
  12548516
 ], 
 [
  "H.", 
  12528262
 ], 
 [
  "seines_PRON", 
  12500320
 ], 
 [
  "seines", 
  12500320
 ], 
 [
  "zeigt", 
  12481981
 ], 
 [
  "zeigt_VERB", 
  12481981
 ], 
 [
  "ganzen", 
  12460168
 ], 
 [
  "ganzen_ADJ", 
  12460168
 ], 
 [
  "weit", 
  12438431
 ], 
 [
  "wegen", 
  12421392
 ], 
 [
  "wegen_ADP", 
  12420984
 ], 
 [
  "gro\u00dfe", 
  12381600
 ], 
 [
  "gro\u00dfe_ADJ", 
  12381533
 ], 
 [
  "ganze", 
  12366993
 ], 
 [
  "ganze_ADJ", 
  12366912
 ], 
 [
  "dort", 
  12341740
 ], 
 [
  "dort_ADV", 
  12341740
 ], 
 [
  "k\u00f6nnte_VERB", 
  12340884
 ], 
 [
  "k\u00f6nnte", 
  12340884
 ], 
 [
  "and_CONJ", 
  12336287
 ], 
 [
  "n\u00e4mlich", 
  12307290
 ], 
 [
  "n\u00e4mlich_ADV", 
  12307290
 ], 
 [
  "Stelle", 
  12288284
 ], 
 [
  "Stelle_NOUN", 
  12282739
 ], 
 [
  "geben", 
  12272669
 ], 
 [
  "solchen_PRON", 
  12267911
 ], 
 [
  "solchen", 
  12267911
 ], 
 [
  "geben_VERB", 
  12264424
 ], 
 [
  "allgemeinen", 
  12260577
 ], 
 [
  "allgemeinen_ADJ", 
  12260575
 ], 
 [
  "vor_PRT", 
  12255824
 ], 
 [
  "and_X", 
  12189550
 ], 
 [
  "ab_PRT", 
  12173054
 ], 
 [
  "Was", 
  12164306
 ], 
 [
  "h\u00e4tte", 
  12154876
 ], 
 [
  "h\u00e4tte_VERB", 
  12154876
 ], 
 [
  "wenig", 
  12154588
 ], 
 [
  "Was_PRON", 
  12147913
 ], 
 [
  "derselben_PRON", 
  12094530
 ], 
 [
  "derselben", 
  12094530
 ], 
 [
  "A.", 
  12087080
 ], 
 [
  "Vgl.", 
  12028369
 ], 
 [
  "zun\u00e4chst_ADV", 
  12014936
 ], 
 [
  "zun\u00e4chst", 
  12014936
 ], 
 [
  "indem_CONJ", 
  12002478
 ], 
 [
  "indem", 
  12002478
 ], 
 [
  "H._NOUN", 
  11983551
 ], 
 [
  "Vgl._NOUN", 
  11969533
 ], 
 [
  "je_ADV", 
  11903601
 ], 
 [
  "einige_PRON", 
  11858408
 ], 
 [
  "einige", 
  11858408
 ], 
 [
  "sp\u00e4ter", 
  11781619
 ], 
 [
  "Aus", 
  11734394
 ], 
 [
  "besteht", 
  11514265
 ], 
 [
  "besteht_VERB", 
  11514265
 ], 
 [
  "da_ADV", 
  11505123
 ], 
 [
  "erste", 
  11494613
 ], 
 [
  "erste_ADJ", 
  11493939
 ], 
 [
  "Da_CONJ", 
  11471872
 ], 
 [
  "weiter_ADV", 
  11424086
 ], 
 [
  "Staaten_NOUN", 
  11423989
 ], 
 [
  "Staaten", 
  11423989
 ], 
 [
  "ebenso", 
  11401564
 ], 
 [
  "erhalten", 
  11398253
 ], 
 [
  "ebenso_ADV", 
  11395462
 ], 
 [
  "erhalten_VERB", 
  11392870
 ], 
 [
  "sehen", 
  11388505
 ], 
 [
  "sehen_VERB", 
  11388505
 ], 
 [
  "Politik_NOUN", 
  11378000
 ], 
 [
  "Politik", 
  11378000
 ], 
 [
  "werde_VERB", 
  11316645
 ], 
 [
  "werde", 
  11316645
 ], 
 [
  "M.", 
  11224911
 ], 
 [
  "f.", 
  11179731
 ], 
 [
  "f._NOUN", 
  11179731
 ], 
 [
  "darin", 
  11148706
 ], 
 [
  "darin_PRON", 
  11148706
 ], 
 [
  "Staat", 
  11135155
 ], 
 [
  "Staat_NOUN", 
  11135155
 ], 
 [
  "The", 
  11091815
 ], 
 [
  "stehen", 
  11067926
 ], 
 [
  "weit_ADJ", 
  11049433
 ], 
 [
  "wollen_VERB", 
  11036489
 ], 
 [
  "wollen", 
  11036489
 ], 
 [
  "zugleich_ADV", 
  11031927
 ], 
 [
  "zugleich", 
  11031927
 ], 
 [
  "davon", 
  11017605
 ], 
 [
  "stehen_VERB", 
  11016424
 ], 
 [
  "bzw._CONJ", 
  10891637
 ], 
 [
  "bzw.", 
  10891637
 ], 
 [
  "Lage", 
  10874288
 ], 
 [
  "Lage_NOUN", 
  10874288
 ], 
 [
  "vgl.", 
  10859487
 ], 
 [
  "viel_PRON", 
  10824670
 ], 
 [
  "du", 
  10768600
 ], 
 [
  "noch_CONJ", 
  10756017
 ], 
 [
  "bleibt", 
  10751672
 ], 
 [
  "bleibt_VERB", 
  10751672
 ], 
 [
  "allerdings", 
  10749660
 ], 
 [
  "allerdings_ADV", 
  10749660
 ], 
 [
  "ins_ADP", 
  10738612
 ], 
 [
  "ins", 
  10738612
 ], 
 [
  "davon_PRON", 
  10706247
 ], 
 [
  "Deutschen", 
  10699949
 ], 
 [
  "Aus_ADP", 
  10697795
 ], 
 [
  "gut", 
  10682120
 ], 
 [
  "scheint", 
  10681835
 ], 
 [
  "scheint_VERB", 
  10681835
 ], 
 [
  "sollen", 
  10622295
 ], 
 [
  "sollen_VERB", 
  10622295
 ], 
 [
  "deutsche", 
  10581592
 ], 
 [
  "deutsche_ADJ", 
  10581581
 ], 
 [
  "gut_ADJ", 
  10573600
 ], 
 [
  "unsere_PRON", 
  10570088
 ], 
 [
  "unsere", 
  10570088
 ], 
 [
  "sogar_ADV", 
  10513312
 ], 
 [
  "sogar", 
  10513312
 ], 
 [
  "du_PRON", 
  10501093
 ], 
 [
  "e", 
  10490658
 ], 
 [
  "M._NOUN", 
  10458481
 ], 
 [
  "Stadt", 
  10380111
 ], 
 [
  "Stadt_NOUN", 
  10380111
 ], 
 [
  "Zahl_NOUN", 
  10375676
 ], 
 [
  "Zahl", 
  10375676
 ], 
 [
  "viele_PRON", 
  10370314
 ], 
 [
  "viele", 
  10370314
 ], 
 [
  "i", 
  10369687
 ], 
 [
  "Kirche", 
  10346237
 ], 
 [
  "Kirche_NOUN", 
  10346237
 ], 
 [
  "F\u00e4llen", 
  10332727
 ], 
 [
  "sagen", 
  10331648
 ], 
 [
  "F\u00e4llen_NOUN", 
  10330929
 ], 
 [
  "sagen_VERB", 
  10330818
 ], 
 [
  "Art._NOUN", 
  10287730
 ], 
 [
  "Art.", 
  10287730
 ], 
 [
  "A", 
  10256089
 ], 
 [
  "Sprache_NOUN", 
  10236395
 ], 
 [
  "Sprache", 
  10236395
 ], 
 [
  "deshalb", 
  10203283
 ], 
 [
  "Mittel", 
  10197825
 ], 
 [
  "deshalb_PRON", 
  10196115
 ], 
 [
  "Denn", 
  10193259
 ], 
 [
  "oben_ADV", 
  10182337
 ], 
 [
  "oben", 
  10182337
 ], 
 [
  "ff.", 
  10177652
 ], 
 [
  "Denn_CONJ", 
  10134046
 ], 
 [
  "gegeben", 
  10129880
 ], 
 [
  "Gott", 
  10128756
 ], 
 [
  "Gott_NOUN", 
  10128756
 ], 
 [
  "Zusammenhang", 
  10126981
 ], 
 [
  "Zusammenhang_NOUN", 
  10126981
 ], 
 [
  "ohne_CONJ", 
  10065648
 ], 
 [
  "welches", 
  10059900
 ], 
 [
  "welches_PRON", 
  10059900
 ], 
 [
  "\u00bb_ADJ", 
  10031361
 ], 
 [
  "gegeben_VERB", 
  10022491
 ], 
 [
  "alten", 
  10018181
 ], 
 [
  "alten_ADJ", 
  10018179
 ], 
 [
  "I_NUM", 
  9991583
 ], 
 [
  "e_X", 
  9946904
 ], 
 [
  "kaum", 
  9934887
 ], 
 [
  "kaum_ADV", 
  9934887
 ], 
 [
  "Begriff", 
  9877953
 ], 
 [
  "Begriff_NOUN", 
  9876544
 ], 
 [
  "Mittel_NOUN", 
  9820402
 ], 
 [
  "gleich", 
  9806901
 ], 
 [
  "The_X", 
  9805786
 ], 
 [
  "lange", 
  9778000
 ], 
 [
  "dagegen", 
  9741879
 ], 
 [
  "dagegen_PRON", 
  9740965
 ], 
 [
  "findet_VERB", 
  9738809
 ], 
 [
  "findet", 
  9738809
 ], 
 [
  "daf\u00fcr", 
  9736047
 ], 
 [
  "daf\u00fcr_PRON", 
  9736047
 ], 
 [
  "vielleicht_ADV", 
  9728585
 ], 
 [
  "vielleicht", 
  9728585
 ], 
 [
  "darf", 
  9716529
 ], 
 [
  "darf_VERB", 
  9716529
 ], 
 [
  "Dies", 
  9708261
 ], 
 [
  "Dies_PRON", 
  9700686
 ], 
 [
  "bisher", 
  9656120
 ], 
 [
  "bisher_ADV", 
  9656120
 ], 
 [
  "Jahr_NOUN", 
  9646986
 ], 
 [
  "Jahr", 
  9646986
 ], 
 [
  "hin", 
  9645130
 ], 
 [
  "macht", 
  9633594
 ], 
 [
  "I.", 
  9631017
 ], 
 [
  "macht_VERB", 
  9622674
 ], 
 [
  "Aufgabe", 
  9618260
 ], 
 [
  "Aufgabe_NOUN", 
  9618260
 ], 
 [
  "innerhalb_ADP", 
  9604577
 ], 
 [
  "innerhalb", 
  9604577
 ], 
 [
  "jene_PRON", 
  9594653
 ], 
 [
  "jene", 
  9594653
 ], 
 [
  "sowohl", 
  9571037
 ], 
 [
  "sowohl_CONJ", 
  9571037
 ], 
 [
  "wenig_PRON", 
  9552863
 ], 
 [
  "An", 
  9539254
 ], 
 [
  "Hand_NOUN", 
  9516871
 ], 
 [
  "Hand", 
  9516871
 ], 
 [
  "kam", 
  9457431
 ], 
 [
  "kam_VERB", 
  9457431
 ], 
 [
  "geworden_VERB", 
  9453930
 ], 
 [
  "geworden", 
  9453930
 ], 
 [
  "Am", 
  9453482
 ], 
 [
  "II", 
  9428313
 ], 
 [
  "jede", 
  9427781
 ], 
 [
  "jede_PRON", 
  9427781
 ], 
 [
  "Kraft", 
  9422434
 ], 
 [
  "Kraft_NOUN", 
  9420877
 ], 
 [
  "bestimmt", 
  9417854
 ], 
 [
  "gleich_ADV", 
  9406088
 ], 
 [
  "Dieser_PRON", 
  9398393
 ], 
 [
  "Dieser", 
  9398393
 ], 
 [
  "keinen", 
  9388142
 ], 
 [
  "keinen_PRON", 
  9388142
 ], 
 [
  "Gesetz", 
  9370307
 ], 
 [
  "Gesetz_NOUN", 
  9370307
 ], 
 [
  "II_NUM", 
  9359113
 ], 
 [
  "Fragen", 
  9358501
 ], 
 [
  "Fragen_NOUN", 
  9357324
 ], 
 [
  "Beispiel", 
  9353574
 ], 
 [
  "Beispiel_NOUN", 
  9353574
 ], 
 [
  "Partei", 
  9340395
 ], 
 [
  "dar\u00fcber", 
  9330702
 ], 
 [
  "dar\u00fcber_PRON", 
  9324864
 ], 
 [
  "gilt", 
  9324549
 ], 
 [
  "gilt_VERB", 
  9324549
 ], 
 [
  "Ausdruck", 
  9294279
 ], 
 [
  "Ausdruck_NOUN", 
  9294279
 ], 
 [
  "Bd.", 
  9292973
 ], 
 [
  "Zur", 
  9274882
 ], 
 [
  "Zur_ADP", 
  9274490
 ], 
 [
  "A._NOUN", 
  9264232
 ], 
 [
  "Zu", 
  9226791
 ], 
 [
  "J.", 
  9202897
 ], 
 [
  "M\u00f6glichkeit", 
  9180256
 ], 
 [
  "M\u00f6glichkeit_NOUN", 
  9180256
 ], 
 [
  "Bd._NOUN", 
  9171952
 ], 
 [
  "Mann", 
  9171606
 ], 
 [
  "Freiheit_NOUN", 
  9166120
 ], 
 [
  "Freiheit", 
  9166120
 ], 
 [
  "Wesen_NOUN", 
  9155166
 ], 
 [
  "Wesen", 
  9155166
 ], 
 [
  "Partei_NOUN", 
  9154364
 ], 
 [
  "andern", 
  9121722
 ], 
 [
  "politische_ADJ", 
  9097555
 ], 
 [
  "politische", 
  9097555
 ], 
 [
  "h.", 
  9061160
 ], 
 [
  "Kunst", 
  9057913
 ], 
 [
  "Mann_NOUN", 
  9050817
 ], 
 [
  "Tage_NOUN", 
  8992306
 ], 
 [
  "Tage", 
  8992306
 ], 
 [
  "Interesse_NOUN", 
  8971570
 ], 
 [
  "Interesse", 
  8971570
 ], 
 [
  "deutlich", 
  8967182
 ], 
 [
  "Bewegung", 
  8957068
 ], 
 [
  "Bewegung_NOUN", 
  8957068
 ], 
 [
  "bald", 
  8947812
 ], 
 [
  "bald_ADV", 
  8947812
 ], 
 [
  "zusammen", 
  8947639
 ], 
 [
  "deutlich_ADJ", 
  8943577
 ], 
 [
  "Hier", 
  8938315
 ], 
 [
  "Hier_ADV", 
  8938315
 ], 
 [
  "Kunst_NOUN", 
  8931177
 ], 
 [
  "insbesondere", 
  8912564
 ], 
 [
  "insbesondere_ADV", 
  8912564
 ], 
 [
  "Mensch_NOUN", 
  8904849
 ], 
 [
  "Mensch", 
  8904849
 ], 
 [
  "Folge_NOUN", 
  8885544
 ], 
 [
  "Folge", 
  8885544
 ], 
 [
  "\u00fcbrigen", 
  8844425
 ], 
 [
  "\u00fcbrigen_ADJ", 
  8844425
 ], 
 [
  "leicht", 
  8832068
 ], 
 [
  "zweiten", 
  8831074
 ], 
 [
  "III", 
  8826678
 ], 
 [
  "zweiten_ADJ", 
  8806121
 ], 
 [
  "gab_VERB", 
  8799218
 ], 
 [
  "gab", 
  8799218
 ], 
 [
  "Bild", 
  8758692
 ], 
 [
  "s", 
  8732807
 ], 
 [
  "sp\u00e4ter_ADJ", 
  8718122
 ], 
 [
  "Bild_NOUN", 
  8716067
 ], 
 [
  "jener_PRON", 
  8714436
 ], 
 [
  "jener", 
  8714436
 ], 
 [
  "III_NUM", 
  8664309
 ], 
 [
  "bestimmt_VERB", 
  8632072
 ], 
 [
  "neben", 
  8615559
 ], 
 [
  "neben_ADP", 
  8615559
 ], 
 [
  "meine", 
  8615256
 ], 
 [
  "Land", 
  8613510
 ], 
 [
  "Wort_NOUN", 
  8588417
 ], 
 [
  "Wort", 
  8588417
 ], 
 [
  "bleiben", 
  8580435
 ], 
 [
  "bleiben_VERB", 
  8576242
 ], 
 [
  "Wissenschaft", 
  8573110
 ], 
 [
  "Wissenschaft_NOUN", 
  8573110
 ], 
 [
  "leicht_ADJ", 
  8568014
 ], 
 [
  "d._PRON", 
  8552887
 ], 
 [
  "stark", 
  8519344
 ], 
 [
  "Weg", 
  8514789
 ], 
 [
  "An_ADP", 
  8512625
 ], 
 [
  "Macht", 
  8499717
 ], 
 [
  "Weg_NOUN", 
  8491604
 ], 
 [
  "Beziehungen", 
  8465864
 ], 
 [
  "Beziehungen_NOUN", 
  8465864
 ], 
 [
  "doch_CONJ", 
  8454161
 ], 
 [
  "erscheint", 
  8446307
 ], 
 [
  "erscheint_VERB", 
  8446307
 ], 
 [
  "System", 
  8431761
 ], 
 [
  "J._NOUN", 
  8415830
 ], 
 [
  "Am_ADP", 
  8400256
 ], 
 [
  "h._VERB", 
  8395032
 ], 
 [
  "folgenden", 
  8393037
 ], 
 [
  "folgenden_ADJ", 
  8393036
 ], 
 [
  "Sache_NOUN", 
  8385077
 ], 
 [
  "Sache", 
  8385077
 ], 
 [
  "stark_ADJ", 
  8374225
 ], 
 [
  "Verh\u00e4ltnis", 
  8374139
 ], 
 [
  "Verh\u00e4ltnis_NOUN", 
  8374139
 ], 
 [
  "l'", 
  8360178
 ], 
 [
  "Frau", 
  8340571
 ], 
 [
  "Frau_NOUN", 
  8340571
 ], 
 [
  "Herr", 
  8324171
 ], 
 [
  "Herr_NOUN", 
  8324171
 ], 
 [
  "Theorie", 
  8322799
 ], 
 [
  "Theorie_NOUN", 
  8322799
 ], 
 [
  "bringen", 
  8283629
 ], 
 [
  "bringen_VERB", 
  8283629
 ], 
 [
  "Frankreich", 
  8267691
 ], 
 [
  "Frankreich_NOUN", 
  8267691
 ], 
 [
  "Rolle", 
  8260140
 ], 
 [
  "Rolle_NOUN", 
  8260140
 ], 
 [
  "a._ADP", 
  8255724
 ], 
 [
  "Macht_NOUN", 
  8240890
 ], 
 [
  "zeigen_VERB", 
  8217744
 ], 
 [
  "zeigen", 
  8217744
 ], 
 [
  "Stellung_NOUN", 
  8201430
 ], 
 [
  "Stellung", 
  8201430
 ], 
 [
  "mu\u00dfte_VERB", 
  8194773
 ], 
 [
  "mu\u00dfte", 
  8194773
 ], 
 [
  "w\u00fcrden", 
  8185205
 ], 
 [
  "w\u00fcrden_VERB", 
  8185205
 ], 
 [
  "nehmen", 
  8183593
 ], 
 [
  "nehmen_VERB", 
  8183021
 ], 
 [
  "System_NOUN", 
  8160521
 ], 
 [
  "bestimmten", 
  8134953
 ], 
 [
  "stellt_VERB", 
  8118119
 ], 
 [
  "stellt", 
  8118119
 ], 
 [
  "weitere", 
  8106256
 ], 
 [
  "Wirkung", 
  8094763
 ], 
 [
  "Wirkung_NOUN", 
  8094763
 ], 
 [
  "Literatur", 
  8089111
 ], 
 [
  "Literatur_NOUN", 
  8089111
 ], 
 [
  "Land_NOUN", 
  8086342
 ], 
 [
  "Reihe_NOUN", 
  8082218
 ], 
 [
  "Reihe", 
  8082218
 ], 
 [
  "s.", 
  8074097
 ], 
 [
  "Kinder", 
  8053464
 ], 
 [
  "ihres", 
  8049166
 ], 
 [
  "n", 
  8048394
 ], 
 [
  "ihres_PRON", 
  8045040
 ], 
 [
  "weitere_ADJ", 
  8038487
 ], 
 [
  "nie", 
  8031551
 ], 
 [
  "nie_ADV", 
  8031551
 ], 
 [
  "Untersuchung", 
  8020419
 ], 
 [
  "Untersuchung_NOUN", 
  8020419
 ], 
 [
  "gleichen", 
  8019076
 ], 
 [
  "Namen", 
  7974313
 ], 
 [
  "Namen_NOUN", 
  7974313
 ], 
 [
  "Richtung", 
  7973018
 ], 
 [
  "Richtung_NOUN", 
  7973018
 ], 
 [
  "stets_ADV", 
  7965563
 ], 
 [
  "stets", 
  7965563
 ], 
 [
  "Beziehung", 
  7945337
 ], 
 [
  "Beziehung_NOUN", 
  7945337
 ], 
 [
  "Falle", 
  7945104
 ], 
 [
  "Lebens", 
  7944530
 ], 
 [
  "Falle_NOUN", 
  7944247
 ], 
 [
  "weniger_PRON", 
  7943379
 ], 
 [
  "wollte_VERB", 
  7940044
 ], 
 [
  "wollte", 
  7940044
 ], 
 [
  "bestimmten_ADJ", 
  7927056
 ], 
 [
  "Seiten", 
  7922949
 ], 
 [
  "Seiten_NOUN", 
  7922949
 ], 
 [
  "zur\u00fcck", 
  7919083
 ], 
 [
  "l_NOUN", 
  7914060
 ], 
 [
  "l", 
  7914060
 ], 
 [
  "Kinder_NOUN", 
  7913236
 ], 
 [
  "E.", 
  7903353
 ], 
 [
  "meine_PRON", 
  7873820
 ], 
 [
  "anderer", 
  7859804
 ], 
 [
  "w\u00e4hrend_ADP", 
  7857274
 ], 
 [
  "Um", 
  7853132
 ], 
 [
  "DDR", 
  7852439
 ], 
 [
  "Verh\u00e4ltnisse", 
  7848448
 ], 
 [
  "Verh\u00e4ltnisse_NOUN", 
  7848448
 ], 
 [
  "Einheit_NOUN", 
  7822758
 ], 
 [
  "Einheit", 
  7822758
 ], 
 [
  "DDR_NOUN", 
  7817311
 ], 
 [
  "seien", 
  7795645
 ], 
 [
  "seien_VERB", 
  7795645
 ], 
 [
  "handelt_VERB", 
  7787919
 ], 
 [
  "handelt", 
  7787919
 ], 
 [
  "Sinn", 
  7780595
 ], 
 [
  "Sinn_NOUN", 
  7780595
 ], 
 [
  "Philosophie", 
  7760166
 ], 
 [
  "Formen", 
  7741714
 ], 
 [
  "Formen_NOUN", 
  7741714
 ], 
 [
  "Verbindung_NOUN", 
  7721281
 ], 
 [
  "Verbindung", 
  7721281
 ], 
 [
  "vielen", 
  7717827
 ], 
 [
  "vielen_PRON", 
  7717827
 ], 
 [
  "vielmehr_ADV", 
  7714485
 ], 
 [
  "vielmehr", 
  7714485
 ], 
 [
  "Als_ADP", 
  7713516
 ], 
 [
  "Philosophie_NOUN", 
  7708006
 ], 
 [
  "W.", 
  7706640
 ], 
 [
  "ebenfalls", 
  7701907
 ], 
 [
  "ebenfalls_ADV", 
  7701907
 ], 
 [
  "b", 
  7689364
 ], 
 [
  "Lebens_NOUN", 
  7683854
 ], 
 [
  "b_X", 
  7664500
 ], 
 [
  "gleichen_ADJ", 
  7663718
 ], 
 [
  "Einflu\u00df", 
  7658526
 ], 
 [
  "Einflu\u00df_NOUN", 
  7658526
 ], 
 [
  "f\u00fchren", 
  7657579
 ], 
 [
  "f\u00fchren_VERB", 
  7657126
 ], 
 [
  "recht", 
  7637484
 ], 
 [
  "Personen", 
  7620861
 ], 
 [
  "Anwendung_NOUN", 
  7619540
 ], 
 [
  "Anwendung", 
  7619540
 ], 
 [
  "durchaus", 
  7615409
 ], 
 [
  "durchaus_ADV", 
  7615409
 ], 
 [
  "solcher", 
  7591778
 ], 
 [
  "solcher_PRON", 
  7591778
 ], 
 [
  "Darstellung_NOUN", 
  7579611
 ], 
 [
  "Darstellung", 
  7579611
 ], 
 [
  "liegen", 
  7559632
 ], 
 [
  "Fig.", 
  7541094
 ], 
 [
  "G.", 
  7531876
 ], 
 [
  "Wien_NOUN", 
  7527254
 ], 
 [
  "Wien", 
  7527254
 ], 
 [
  "Personen_NOUN", 
  7512400
 ], 
 [
  "Durch", 
  7497051
 ], 
 [
  "l'_X", 
  7495015
 ], 
 [
  "liegen_VERB", 
  7476200
 ], 
 [
  "Durch_ADP", 
  7472467
 ], 
 [
  "Frauen", 
  7465491
 ], 
 [
  "Gebiet", 
  7462209
 ], 
 [
  "Gebiet_NOUN", 
  7462209
 ], 
 [
  "gehen_VERB", 
  7446215
 ], 
 [
  "gehen", 
  7446215
 ], 
 [
  "wirklich", 
  7438744
 ], 
 [
  "wirklich_ADJ", 
  7438744
 ], 
 [
  "II.", 
  7436636
 ], 
 [
  "E._NOUN", 
  7433126
 ], 
 [
  "Arbeiter", 
  7429830
 ], 
 [
  "Fig._NOUN", 
  7422303
 ], 
 [
  "Nur", 
  7416985
 ], 
 [
  "kleinen", 
  7409611
 ], 
 [
  "kleinen_ADJ", 
  7409608
 ], 
 [
  "Bildung_NOUN", 
  7406879
 ], 
 [
  "Bildung", 
  7406879
 ], 
 [
  "Frauen_NOUN", 
  7401946
 ], 
 [
  "W._NOUN", 
  7400438
 ], 
 [
  "v\u00f6llig", 
  7393877
 ], 
 [
  "v\u00f6llig_ADJ", 
  7393766
 ], 
 [
  "sieht_VERB", 
  7388869
 ], 
 [
  "sieht", 
  7388869
 ], 
 [
  "Zu_ADP", 
  7371061
 ], 
 [
  "welchen", 
  7369622
 ], 
 [
  "welchen_PRON", 
  7369622
 ], 
 [
  "Nur_ADV", 
  7361929
 ], 
 [
  "is", 
  7358418
 ], 
 [
  "is_X", 
  7358418
 ], 
 [
  "geh\u00f6rt_VERB", 
  7342128
 ], 
 [
  "geh\u00f6rt", 
  7342128
 ], 
 [
  "Bedingungen", 
  7324817
 ], 
 [
  "Bedingungen_NOUN", 
  7324817
 ], 
 [
  "Als_CONJ", 
  7313333
 ], 
 [
  "\u00bb_X", 
  7301824
 ], 
 [
  "statt", 
  7268095
 ], 
 [
  "hei\u00dft", 
  7260690
 ], 
 [
  "hei\u00dft_VERB", 
  7260690
 ], 
 [
  "f\u00fchrt", 
  7246721
 ], 
 [
  "f\u00fchrt_VERB", 
  7246721
 ], 
 [
  "wobei", 
  7238327
 ], 
 [
  "G._NOUN", 
  7237122
 ], 
 [
  "Ziel_NOUN", 
  7226678
 ], 
 [
  "Ziel", 
  7226678
 ], 
 [
  "konnten_VERB", 
  7221615
 ], 
 [
  "konnten", 
  7221615
 ], 
 [
  "Ordnung", 
  7217859
 ], 
 [
  "Ordnung_NOUN", 
  7217859
 ], 
 [
  "Charakter", 
  7216055
 ], 
 [
  "Charakter_NOUN", 
  7216055
 ], 
 [
  "nat\u00fcrlich", 
  7205929
 ], 
 [
  "jedem_PRON", 
  7196611
 ], 
 [
  "jedem", 
  7196611
 ], 
 [
  "fr\u00fcher", 
  7177272
 ], 
 [
  "meisten", 
  7150599
 ], 
 [
  "nat\u00fcrlich_ADV", 
  7142397
 ], 
 [
  "meisten_PRON", 
  7135896
 ], 
 [
  "damals", 
  7134512
 ], 
 [
  "damals_ADV", 
  7134512
 ], 
 [
  "Arbeiter_NOUN", 
  7128469
 ], 
 [
  "zur\u00fcck_PRT", 
  7098143
 ], 
 [
  "le", 
  7089178
 ], 
 [
  "sozialen_ADJ", 
  7086164
 ], 
 [
  "sozialen", 
  7086164
 ], 
 [
  "Geist", 
  7085112
 ], 
 [
  "Geist_NOUN", 
  7085112
 ], 
 [
  "sollten_VERB", 
  7080414
 ], 
 [
  "sollten", 
  7080414
 ], 
 [
  "vier", 
  7078320
 ], 
 [
  "Volk_NOUN", 
  7072935
 ], 
 [
  "Volk", 
  7072935
 ], 
 [
  "weder", 
  7070099
 ], 
 [
  "weder_CONJ", 
  7070099
 ], 
 [
  "andere_PRON", 
  7067251
 ], 
 [
  "vier_NUM", 
  7063740
 ], 
 [
  "sagt", 
  7052351
 ], 
 [
  "sagt_VERB", 
  7052351
 ], 
 [
  "Wege_NOUN", 
  7044400
 ], 
 [
  "Wege", 
  7044400
 ], 
 [
  "Um_CONJ", 
  7035997
 ], 
 [
  "wobei_PRON", 
  7030053
 ], 
 [
  "anderer_ADJ", 
  7022082
 ], 
 [
  "welchem_PRON", 
  7020933
 ], 
 [
  "welchem", 
  7020933
 ], 
 [
  "le_X", 
  7019259
 ], 
 [
  "Mai", 
  7007798
 ], 
 [
  "Mai_NOUN", 
  7007798
 ], 
 [
  "k\u00f6nne", 
  7006282
 ], 
 [
  "k\u00f6nne_VERB", 
  7006282
 ], 
 [
  "Unter", 
  7002502
 ], 
 [
  "erkennen_VERB", 
  6998141
 ], 
 [
  "erkennen", 
  6998141
 ], 
 [
  "Wahrheit_NOUN", 
  6990405
 ], 
 [
  "Wahrheit", 
  6990405
 ], 
 [
  "sonst_ADV", 
  6952991
 ], 
 [
  "sonst", 
  6952991
 ], 
 [
  "Wirklichkeit", 
  6951963
 ], 
 [
  "Wirklichkeit_NOUN", 
  6951963
 ], 
 [
  "Nicht", 
  6926657
 ], 
 [
  "Anfang_NOUN", 
  6911579
 ], 
 [
  "Anfang", 
  6911579
 ], 
 [
  "Untersuchungen_NOUN", 
  6909457
 ], 
 [
  "Untersuchungen", 
  6909457
 ], 
 [
  "Da\u00df", 
  6907623
 ], 
 [
  "en", 
  6899476
 ], 
 [
  "Da\u00df_CONJ", 
  6897837
 ], 
 [
  "Bereich_NOUN", 
  6886859
 ], 
 [
  "Bereich", 
  6886859
 ], 
 [
  "Deutschen_ADJ", 
  6879406
 ], 
 [
  "Bev\u00f6lkerung_NOUN", 
  6856004
 ], 
 [
  "Bev\u00f6lkerung", 
  6856004
 ], 
 [
  "bekannt", 
  6855349
 ], 
 [
  "Problem", 
  6850176
 ], 
 [
  "Werk", 
  6847863
 ], 
 [
  "Werk_NOUN", 
  6847863
 ], 
 [
  "denn_ADV", 
  6843949
 ], 
 [
  "Problem_NOUN", 
  6834039
 ], 
 [
  "Herrn", 
  6827057
 ], 
 [
  "Herrn_NOUN", 
  6827057
 ], 
 [
  "stellen", 
  6818794
 ], 
 [
  "stellen_VERB", 
  6813028
 ], 
 [
  "\u00f6ffentlichen", 
  6798838
 ], 
 [
  "\u00f6ffentlichen_ADJ", 
  6798838
 ], 
 [
  "ging_VERB", 
  6780482
 ], 
 [
  "ging", 
  6780482
 ], 
 [
  "vorhanden_ADJ", 
  6752298
 ], 
 [
  "vorhanden", 
  6752298
 ], 
 [
  "daran_PRON", 
  6739918
 ], 
 [
  "daran", 
  6739918
 ], 
 [
  "Gedanken", 
  6738295
 ], 
 [
  "beide", 
  6711838
 ], 
 [
  "beide_PRON", 
  6711838
 ], 
 [
  "Gedanken_NOUN", 
  6709119
 ], 
 [
  "bestimmte", 
  6696299
 ], 
 [
  "M\u00fcnchen", 
  6696028
 ], 
 [
  "M\u00fcnchen_NOUN", 
  6696028
 ], 
 [
  "Grundlage", 
  6687916
 ], 
 [
  "Grundlage_NOUN", 
  6687916
 ], 
 [
  "Gruppe", 
  6670942
 ], 
 [
  "Gruppe_NOUN", 
  6670942
 ], 
 [
  "Unter_ADP", 
  6657514
 ], 
 [
  "schlie\u00dflich", 
  6650527
 ], 
 [
  "schlie\u00dflich_ADV", 
  6650527
 ], 
 [
  "Paris", 
  6647997
 ], 
 [
  "Paris_NOUN", 
  6647997
 ], 
 [
  "eigene", 
  6633906
 ], 
 [
  "eigene_ADJ", 
  6633906
 ], 
 [
  "Krieg_NOUN", 
  6633486
 ], 
 [
  "Krieg", 
  6633486
 ], 
 [
  "Auffassung", 
  6628371
 ], 
 [
  "Auffassung_NOUN", 
  6628371
 ], 
 [
  "hinaus", 
  6625673
 ], 
 [
  "les", 
  6624814
 ], 
 [
  "Dinge_NOUN", 
  6616182
 ], 
 [
  "Dinge", 
  6616182
 ], 
 [
  "fand_VERB", 
  6599216
 ], 
 [
  "fand", 
  6599216
 ], 
 [
  "les_X", 
  6599148
 ], 
 [
  "folgende_ADJ", 
  6584756
 ], 
 [
  "folgende", 
  6584756
 ], 
 [
  "Rede", 
  6584565
 ], 
 [
  "her", 
  6578363
 ], 
 [
  "Jahrhunderts_NOUN", 
  6567727
 ], 
 [
  "Jahrhunderts", 
  6567727
 ], 
 [
  "halten", 
  6566658
 ], 
 [
  "halten_VERB", 
  6565568
 ], 
 [
  "Rede_NOUN", 
  6563608
 ], 
 [
  "Wasser_NOUN", 
  6558183
 ], 
 [
  "Wasser", 
  6558183
 ], 
 [
  "muss", 
  6553483
 ], 
 [
  "Doch", 
  6549775
 ], 
 [
  "Artikel", 
  6547358
 ], 
 [
  "Artikel_NOUN", 
  6547358
 ], 
 [
  "Rahmen", 
  6544258
 ], 
 [
  "Rahmen_NOUN", 
  6544036
 ], 
 [
  "R.", 
  6540100
 ], 
 [
  "wissen", 
  6537192
 ], 
 [
  "wissen_VERB", 
  6533402
 ], 
 [
  "wenigstens", 
  6528416
 ], 
 [
  "wenigstens_ADV", 
  6528416
 ], 
 [
  "Kampf_NOUN", 
  6523238
 ], 
 [
  "Kampf", 
  6523238
 ], 
 [
  "\u00ab_PRT", 
  6520641
 ], 
 [
  "\u00ab_X", 
  6518818
 ], 
 [
  "bezeichnet", 
  6493272
 ], 
 [
  "bezeichnet_VERB", 
  6493272
 ], 
 [
  "K\u00f6nig_NOUN", 
  6491919
 ], 
 [
  "K\u00f6nig", 
  6491919
 ], 
 [
  "Linie", 
  6458634
 ], 
 [
  "Linie_NOUN", 
  6458634
 ], 
 [
  "weiteren_ADJ", 
  6448550
 ], 
 [
  "weiteren", 
  6448550
 ], 
 [
  "Nicht_PRT", 
  6440393
 ], 
 [
  "M\u00e4rz_NOUN", 
  6429771
 ], 
 [
  "M\u00e4rz", 
  6429771
 ], 
 [
  "L\u00e4nder_NOUN", 
  6427179
 ], 
 [
  "L\u00e4nder", 
  6427179
 ], 
 [
  "Doch_CONJ", 
  6426016
 ], 
 [
  "\u00dcber", 
  6421140
 ], 
 [
  "Hilfe", 
  6412523
 ], 
 [
  "Hilfe_NOUN", 
  6412523
 ], 
 [
  "genau", 
  6410130
 ], 
 [
  "Boden", 
  6406341
 ], 
 [
  "August", 
  6405059
 ], 
 [
  "August_NOUN", 
  6405059
 ], 
 [
  "Abb.", 
  6404951
 ], 
 [
  "L\u00f6sung_NOUN", 
  6395267
 ], 
 [
  "L\u00f6sung", 
  6395267
 ], 
 [
  "England", 
  6395115
 ], 
 [
  "England_NOUN", 
  6395115
 ], 
 [
  "bilden_VERB", 
  6393456
 ], 
 [
  "bilden", 
  6393456
 ], 
 [
  "Wert", 
  6386619
 ], 
 [
  "erreicht_VERB", 
  6381123
 ], 
 [
  "erreicht", 
  6381123
 ], 
 [
  "viel_ADV", 
  6376825
 ], 
 [
  "Probleme_NOUN", 
  6375673
 ], 
 [
  "Probleme", 
  6375673
 ], 
 [
  "am_PRT", 
  6373010
 ], 
 [
  "tritt", 
  6369611
 ], 
 [
  "tritt_VERB", 
  6369574
 ], 
 [
  "Den", 
  6356116
 ], 
 [
  "besondere", 
  6345801
 ], 
 [
  "besondere_ADJ", 
  6345798
 ], 
 [
  "Boden_NOUN", 
  6341785
 ], 
 [
  "muss_VERB", 
  6330428
 ], 
 [
  "H\u00f6he", 
  6326675
 ], 
 [
  "H\u00f6he_NOUN", 
  6319729
 ], 
 [
  "i_X", 
  6318495
 ], 
 [
  "mag", 
  6314508
 ], 
 [
  "mag_VERB", 
  6314508
 ], 
 [
  "Wert_NOUN", 
  6309121
 ], 
 [
  "lange_ADV", 
  6300206
 ], 
 [
  "anders", 
  6287758
 ], 
 [
  "Abb._NOUN", 
  6286543
 ], 
 [
  "anders_ADV", 
  6285978
 ], 
 [
  "en_X", 
  6278649
 ], 
 [
  "usw.", 
  6276094
 ], 
 [
  "usw._ADV", 
  6276094
 ], 
 [
  "Europa", 
  6263218
 ], 
 [
  "Europa_NOUN", 
  6263218
 ], 
 [
  "Bestimmung", 
  6260838
 ], 
 [
  "Bestimmung_NOUN", 
  6260838
 ], 
 [
  "genau_ADJ", 
  6251931
 ], 
 [
  "Kritik_NOUN", 
  6248062
 ], 
 [
  "Kritik", 
  6248062
 ], 
 [
  "Buch", 
  6246571
 ], 
 [
  "einander", 
  6239617
 ], 
 [
  "unmittelbar", 
  6237159
 ], 
 [
  "unmittelbar_ADJ", 
  6237159
 ], 
 [
  "erkl\u00e4rt_VERB", 
  6232438
 ], 
 [
  "erkl\u00e4rt", 
  6232438
 ], 
 [
  "Universit\u00e4t", 
  6223650
 ], 
 [
  "Universit\u00e4t_NOUN", 
  6223650
 ], 
 [
  "Den_DET", 
  6222752
 ], 
 [
  "W\u00e4hrend", 
  6213918
 ], 
 [
  "Juni", 
  6207718
 ], 
 [
  "Juni_NOUN", 
  6207718
 ], 
 [
  "m", 
  6204659
 ], 
 [
  "t", 
  6203856
 ], 
 [
  "gebracht", 
  6200440
 ], 
 [
  "gebracht_VERB", 
  6200440
 ], 
 [
  "jeden_PRON", 
  6199928
 ], 
 [
  "jeden", 
  6199928
 ], 
 [
  "April_NOUN", 
  6197692
 ], 
 [
  "April", 
  6197692
 ], 
 [
  "Zukunft_NOUN", 
  6195675
 ], 
 [
  "Zukunft", 
  6195675
 ], 
 [
  "recht_ADV", 
  6180706
 ], 
 [
  "Dabei", 
  6173506
 ], 
 [
  "Dabei_PRON", 
  6172719
 ], 
 [
  "Buch_NOUN", 
  6155282
 ], 
 [
  "h\u00e4tten_VERB", 
  6147123
 ], 
 [
  "h\u00e4tten", 
  6147123
 ], 
 [
  "weniger_ADV", 
  6145491
 ], 
 [
  "Arbeiten", 
  6145051
 ], 
 [
  "Arbeiten_NOUN", 
  6134304
 ], 
 [
  "d'_NOUN", 
  6133628
 ], 
 [
  "d'", 
  6133628
 ], 
 [
  "Karl", 
  6127700
 ], 
 [
  "Inhalt_NOUN", 
  6118945
 ], 
 [
  "Inhalt", 
  6118945
 ], 
 [
  "F.", 
  6104533
 ], 
 [
  "F._NOUN", 
  6104533
 ], 
 [
  "Erkl\u00e4rung_NOUN", 
  6102499
 ], 
 [
  "Erkl\u00e4rung", 
  6102499
 ], 
 [
  "Juli", 
  6093211
 ], 
 [
  "Juli_NOUN", 
  6093211
 ], 
 [
  "zweite", 
  6086460
 ], 
 [
  "zweite_ADJ", 
  6086460
 ], 
 [
  "Raum_NOUN", 
  6080245
 ], 
 [
  "Raum", 
  6080245
 ], 
 [
  "\u00dcber_ADP", 
  6076417
 ], 
 [
  "Dieses_PRON", 
  6066262
 ], 
 [
  "Dieses", 
  6066262
 ], 
 [
  "Gegensatz_NOUN", 
  6059081
 ], 
 [
  "Gegensatz", 
  6059081
 ], 
 [
  "anderen_PRON", 
  6056556
 ], 
 [
  "Meinung", 
  6054973
 ], 
 [
  "Meinung_NOUN", 
  6054973
 ], 
 [
  "genommen", 
  6036386
 ], 
 [
  "genommen_VERB", 
  6036386
 ], 
 [
  "Verfahren", 
  6035342
 ], 
 [
  "Verfahren_NOUN", 
  6033310
 ], 
 [
  "ferner", 
  6031865
 ], 
 [
  "Versuch_NOUN", 
  6029105
 ], 
 [
  "Versuch", 
  6029105
 ], 
 [
  "allgemeine_ADJ", 
  6027910
 ], 
 [
  "allgemeine", 
  6027910
 ], 
 [
  "meiner_PRON", 
  5992198
 ], 
 [
  "meiner", 
  5992198
 ], 
 [
  "Damit", 
  5981827
 ], 
 [
  "bestehen", 
  5980399
 ], 
 [
  "bestimmte_ADJ", 
  5979346
 ], 
 [
  "endlich_ADV", 
  5978302
 ], 
 [
  "endlich", 
  5978302
 ], 
 [
  "bestehen_VERB", 
  5975634
 ], 
 [
  "gefunden_VERB", 
  5971074
 ], 
 [
  "gefunden", 
  5971074
 ], 
 [
  "Mitglieder", 
  5970186
 ], 
 [
  "ferner_ADV", 
  5964898
 ], 
 [
  "trotz", 
  5964697
 ], 
 [
  "trotz_ADP", 
  5964269
 ], 
 [
  "Revolution_NOUN", 
  5964268
 ], 
 [
  "Revolution", 
  5964268
 ], 
 [
  "Karl_NOUN", 
  5960647
 ], 
 [
  "Mitglieder_NOUN", 
  5960483
 ], 
 [
  "menschlichen_ADJ", 
  5953218
 ], 
 [
  "menschlichen", 
  5953218
 ], 
 [
  "Ansicht", 
  5946745
 ], 
 [
  "Ansicht_NOUN", 
  5946745
 ], 
 [
  "verschiedene_ADJ", 
  5945911
 ], 
 [
  "verschiedene", 
  5945911
 ], 
 [
  "notwendig", 
  5942476
 ], 
 [
  "notwendig_ADJ", 
  5942476
 ], 
 [
  "wesentlich", 
  5934551
 ], 
 [
  "L\u00e4ndern", 
  5932810
 ], 
 [
  "L\u00e4ndern_NOUN", 
  5932810
 ], 
 [
  "Deutsche", 
  5931889
 ], 
 [
  "A_X", 
  5931758
 ], 
 [
  "m\u00f6chte_VERB", 
  5926483
 ], 
 [
  "m\u00f6chte", 
  5926483
 ], 
 [
  "meist", 
  5921565
 ], 
 [
  "meist_ADV", 
  5921565
 ], 
 [
  "Schule", 
  5919573
 ], 
 [
  "Schule_NOUN", 
  5919573
 ], 
 [
  "Entscheidung", 
  5918815
 ], 
 [
  "Entscheidung_NOUN", 
  5918815
 ], 
 [
  "klar", 
  5917834
 ], 
 [
  "wesentlich_ADJ", 
  5916368
 ], 
 [
  "h\u00e4ufig_ADJ", 
  5889063
 ], 
 [
  "h\u00e4ufig", 
  5889063
 ], 
 [
  "einigen", 
  5882720
 ], 
 [
  "Lehre", 
  5880765
 ], 
 [
  "Lehre_NOUN", 
  5880765
 ], 
 [
  "Erfahrung", 
  5879771
 ], 
 [
  "Erfahrung_NOUN", 
  5879771
 ], 
 [
  "T\u00e4tigkeit_NOUN", 
  5872214
 ], 
 [
  "T\u00e4tigkeit", 
  5872214
 ], 
 [
  "Aufgaben", 
  5869217
 ], 
 [
  "Aufgaben_NOUN", 
  5868943
 ], 
 [
  "gestellt", 
  5855217
 ], 
 [
  "on", 
  5850257
 ], 
 [
  "gestellt_VERB", 
  5844340
 ], 
 [
  "andern_PRON", 
  5843107
 ], 
 [
  "Gottes_NOUN", 
  5840376
 ], 
 [
  "Gottes", 
  5840376
 ], 
 [
  "Tag", 
  5840160
 ], 
 [
  "Tag_NOUN", 
  5840160
 ], 
 [
  "Alle", 
  5838251
 ], 
 [
  "Alle_PRON", 
  5838242
 ], 
 [
  "Theil", 
  5837690
 ], 
 [
  "p.", 
  5834215
 ], 
 [
  "darum", 
  5829089
 ], 
 [
  "darum_PRON", 
  5829089
 ], 
 [
  "Regel", 
  5828794
 ], 
 [
  "etwas_ADV", 
  5823317
 ], 
 [
  "Sein", 
  5818719
 ], 
 [
  "Regel_NOUN", 
  5817533
 ], 
 [
  "Augen", 
  5817158
 ], 
 [
  "Augen_NOUN", 
  5817158
 ], 
 [
  "Rechte", 
  5806907
 ], 
 [
  "dieselbe", 
  5804022
 ], 
 [
  "Interessen_NOUN", 
  5798663
 ], 
 [
  "Interessen", 
  5798663
 ], 
 [
  "nimmt_VERB", 
  5795989
 ], 
 [
  "nimmt", 
  5795989
 ], 
 [
  "Liebe", 
  5794521
 ], 
 [
  "erscheinen", 
  5788905
 ], 
 [
  "erscheinen_VERB", 
  5788019
 ], 
 [
  "Bundesrepublik", 
  5785580
 ], 
 [
  "Bundesrepublik_NOUN", 
  5785580
 ], 
 [
  "Zweck_NOUN", 
  5779696
 ], 
 [
  "Zweck", 
  5779696
 ], 
 [
  "Kultur", 
  5776703
 ], 
 [
  "gesagt_VERB", 
  5775656
 ], 
 [
  "gesagt", 
  5775656
 ], 
 [
  "Rechte_NOUN", 
  5770859
 ], 
 [
  "Kr\u00e4fte", 
  5769480
 ], 
 [
  "Kr\u00e4fte_NOUN", 
  5769480
 ], 
 [
  "Gegenstand", 
  5764502
 ], 
 [
  "Gegenstand_NOUN", 
  5764502
 ], 
 [
  "jedes_PRON", 
  5755742
 ], 
 [
  "jedes", 
  5755742
 ], 
 [
  "Wirtschaft", 
  5748931
 ], 
 [
  "Wirtschaft_NOUN", 
  5748931
 ], 
 [
  "Jahrhundert_NOUN", 
  5743873
 ], 
 [
  "Jahrhundert", 
  5743873
 ], 
 [
  "Abs.", 
  5738463
 ], 
 [
  "Abs._NOUN", 
  5738463
 ], 
 [
  "Theil_NOUN", 
  5725966
 ], 
 [
  "Liebe_NOUN", 
  5716288
 ], 
 [
  "for", 
  5709130
 ], 
 [
  "Anzahl_NOUN", 
  5700426
 ], 
 [
  "Anzahl", 
  5700426
 ], 
 [
  "for_X", 
  5696315
 ], 
 [
  "franz\u00f6sischen_ADJ", 
  5691896
 ], 
 [
  "franz\u00f6sischen", 
  5691896
 ], 
 [
  "R._NOUN", 
  5680842
 ], 
 [
  "tun", 
  5677732
 ], 
 [
  "tun_VERB", 
  5677260
 ], 
 [
  "freilich", 
  5672997
 ], 
 [
  "freilich_ADV", 
  5672997
 ], 
 [
  "gesehen", 
  5670484
 ], 
 [
  "gesehen_VERB", 
  5670484
 ], 
 [
  "Grunde", 
  5669506
 ], 
 [
  "Grunde_NOUN", 
  5669506
 ], 
 [
  "W\u00e4hrend_CONJ", 
  5658302
 ], 
 [
  "on_X", 
  5649830
 ], 
 [
  "stand", 
  5645355
 ], 
 [
  "Friedrich_NOUN", 
  5634604
 ], 
 [
  "Friedrich", 
  5634604
 ], 
 [
  "Werke", 
  5630406
 ], 
 [
  "Werke_NOUN", 
  5630406
 ], 
 [
  "p._X", 
  5630126
 ], 
 [
  "Prof.", 
  5608060
 ], 
 [
  "Organisation", 
  5605290
 ], 
 [
  "Organisation_NOUN", 
  5605290
 ], 
 [
  "verbunden", 
  5592952
 ], 
 [
  "stand_VERB", 
  5584838
 ], 
 [
  "dafs", 
  5584480
 ], 
 [
  "Prof._NOUN", 
  5582564
 ], 
 [
  "besser", 
  5580380
 ], 
 [
  "besser_ADJ", 
  5580380
 ], 
 [
  "Kultur_NOUN", 
  5579652
 ], 
 [
  "t_NUM", 
  5578911
 ], 
 [
  "verbunden_VERB", 
  5573064
 ], 
 [
  "Unterschied_NOUN", 
  5543004
 ], 
 [
  "Unterschied", 
  5543004
 ], 
 [
  "anderes", 
  5526786
 ], 
 [
  "n_X", 
  5525622
 ], 
 [
  "eigentlich", 
  5520601
 ], 
 [
  "eigentlich_ADV", 
  5520601
 ], 
 [
  "\u00b0_NUM", 
  5520412
 ], 
 [
  "besonderen_ADJ", 
  5517459
 ], 
 [
  "besonderen", 
  5517459
 ], 
 [
  "Damit_PRON", 
  5499266
 ], 
 [
  "Parteien_NOUN", 
  5491574
 ], 
 [
  "Parteien", 
  5491574
 ], 
 [
  "bin_VERB", 
  5488123
 ], 
 [
  "bin", 
  5488123
 ], 
 [
  "d._DET", 
  5488014
 ], 
 [
  "desselben", 
  5486521
 ], 
 [
  "Behandlung_NOUN", 
  5484436
 ], 
 [
  "Behandlung", 
  5484436
 ], 
 [
  "Situation", 
  5475935
 ], 
 [
  "Mitte", 
  5471571
 ], 
 [
  "Mitte_NOUN", 
  5471567
 ], 
 [
  "daraus", 
  5467606
 ], 
 [
  "daraus_PRON", 
  5467606
 ], 
 [
  "Kaiser_NOUN", 
  5463199
 ], 
 [
  "Kaiser", 
  5463199
 ], 
 [
  "o", 
  5461667
 ], 
 [
  "einigen_PRON", 
  5460204
 ], 
 [
  "Methode_NOUN", 
  5457337
 ], 
 [
  "Methode", 
  5457337
 ], 
 [
  "that", 
  5456706
 ], 
 [
  "namentlich", 
  5454451
 ], 
 [
  "Millionen", 
  5447634
 ], 
 [
  "zusammen_PRT", 
  5444521
 ], 
 [
  "F\u00e4lle", 
  5443712
 ], 
 [
  "F\u00e4lle_NOUN", 
  5443712
 ], 
 [
  "be", 
  5441144
 ], 
 [
  "Bestimmungen_NOUN", 
  5441125
 ], 
 [
  "Bestimmungen", 
  5441125
 ], 
 [
  "Millionen_NOUN", 
  5439857
 ], 
 [
  "d", 
  5428722
 ], 
 [
  "Band", 
  5428111
 ], 
 [
  "Band_NOUN", 
  5424998
 ], 
 [
  "lie\u00df", 
  5421832
 ], 
 [
  "lie\u00df_VERB", 
  5421832
 ], 
 [
  "d\u00fcrfen", 
  5415618
 ], 
 [
  "d\u00fcrfen_VERB", 
  5415618
 ], 
 [
  "gleichzeitig", 
  5411334
 ], 
 [
  "gleichzeitig_ADJ", 
  5411334
 ], 
 [
  "Situation_NOUN", 
  5407478
 ], 
 [
  "blieb", 
  5406121
 ], 
 [
  "blieb_VERB", 
  5406121
 ], 
 [
  "Praxis", 
  5406118
 ], 
 [
  "Praxis_NOUN", 
  5406118
 ], 
 [
  "K.", 
  5400606
 ], 
 [
  "spricht_VERB", 
  5397077
 ], 
 [
  "spricht", 
  5397077
 ], 
 [
  "November", 
  5383727
 ], 
 [
  "November_NOUN", 
  5383727
 ], 
 [
  "gewisse_ADJ", 
  5382955
 ], 
 [
  "gewisse", 
  5382955
 ], 
 [
  "v._ADP", 
  5376619
 ], 
 [
  "Landes_NOUN", 
  5369541
 ], 
 [
  "Landes", 
  5369541
 ], 
 [
  "I._ADJ", 
  5367832
 ], 
 [
  "Kosten", 
  5367087
 ], 
 [
  "einzelne", 
  5361078
 ], 
 [
  "einzelne_ADJ", 
  5361078
 ], 
 [
  "machte", 
  5360441
 ], 
 [
  "machte_VERB", 
  5360441
 ], 
 [
  "bedeutet_VERB", 
  5353931
 ], 
 [
  "bedeutet", 
  5353931
 ], 
 [
  "Idee", 
  5353375
 ], 
 [
  "Idee_NOUN", 
  5353375
 ], 
 [
  "unser", 
  5350785
 ], 
 [
  "unser_PRON", 
  5350785
 ], 
 [
  "o_X", 
  5347911
 ], 
 [
  "erster", 
  5343536
 ], 
 [
  "sprechen", 
  5335749
 ], 
 [
  "sprechen_VERB", 
  5335522
 ], 
 [
  "Satz", 
  5329506
 ], 
 [
  "Satz_NOUN", 
  5329506
 ], 
 [
  "d_X", 
  5329266
 ], 
 [
  "ergibt_VERB", 
  5326145
 ], 
 [
  "ergibt", 
  5326145
 ], 
 [
  "namentlich_ADV", 
  5318972
 ], 
 [
  "hinter", 
  5313773
 ], 
 [
  "Kosten_NOUN", 
  5307816
 ], 
 [
  "rein", 
  5306254
 ], 
 [
  "Sicherheit", 
  5303114
 ], 
 [
  "Sicherheit_NOUN", 
  5303114
 ], 
 [
  "kleine_ADJ", 
  5302042
 ], 
 [
  "kleine", 
  5302042
 ], 
 [
  "B", 
  5301948
 ], 
 [
  "September_NOUN", 
  5297500
 ], 
 [
  "September", 
  5297500
 ], 
 [
  "hervor_PRT", 
  5296690
 ], 
 [
  "hervor", 
  5296690
 ], 
 [
  "wei\u00df", 
  5284699
 ], 
 [
  "hinter_ADP", 
  5283196
 ], 
 [
  "nachdem", 
  5282344
 ], 
 [
  "lediglich", 
  5277365
 ], 
 [
  "lediglich_ADV", 
  5277365
 ], 
 [
  "Staates_NOUN", 
  5272919
 ], 
 [
  "Staates", 
  5272919
 ], 
 [
  "Oktober_NOUN", 
  5264434
 ], 
 [
  "Oktober", 
  5264434
 ], 
 [
  "fest", 
  5264313
 ], 
 [
  "richtig", 
  5263029
 ], 
 [
  "Ist", 
  5253919
 ], 
 [
  "Ist_VERB", 
  5253919
 ], 
 [
  "Gefahr_NOUN", 
  5251504
 ], 
 [
  "Gefahr", 
  5251504
 ], 
 [
  "klar_ADJ", 
  5244652
 ], 
 [
  "Frankfurt_NOUN", 
  5239985
 ], 
 [
  "Frankfurt", 
  5239985
 ], 
 [
  "K._NOUN", 
  5235282
 ], 
 [
  "Gesetze_NOUN", 
  5231754
 ], 
 [
  "Gesetze", 
  5231754
 ], 
 [
  "Tatsache_NOUN", 
  5231459
 ], 
 [
  "Tatsache", 
  5231459
 ], 
 [
  "c", 
  5231057
 ], 
 [
  "Seele_NOUN", 
  5228768
 ], 
 [
  "Seele", 
  5228768
 ], 
 [
  "DM", 
  5228289
 ], 
 [
  "DM_NOUN", 
  5228289
 ], 
 [
  "Ma\u00dfnahmen", 
  5226357
 ], 
 [
  "Ma\u00dfnahmen_NOUN", 
  5226357
 ], 
 [
  "richtig_ADJ", 
  5223732
 ], 
 [
  "Zum", 
  5218167
 ], 
 [
  "sah_VERB", 
  5211893
 ], 
 [
  "sah", 
  5211893
 ], 
 [
  "erster_ADJ", 
  5208825
 ], 
 [
  "Zum_ADP", 
  5202623
 ], 
 [
  "c_X", 
  5196322
 ], 
 [
  "Grenzen", 
  5188923
 ], 
 [
  "Grenzen_NOUN", 
  5188923
 ], 
 [
  "Republik_NOUN", 
  5184023
 ], 
 [
  "Republik", 
  5184023
 ], 
 [
  "Person_NOUN", 
  5182983
 ], 
 [
  "Person", 
  5182983
 ], 
 [
  "allgemein_ADJ", 
  5181306
 ], 
 [
  "allgemein", 
  5181306
 ], 
 [
  "genug", 
  5176223
 ], 
 [
  "Familie", 
  5174378
 ], 
 [
  "Familie_NOUN", 
  5174378
 ], 
 [
  "hinaus_ADP", 
  5173520
 ], 
 [
  "wei\u00df_VERB", 
  5169479
 ], 
 [
  "Erfolg_NOUN", 
  5157011
 ], 
 [
  "Erfolg", 
  5157011
 ], 
 [
  "Industrie", 
  5146128
 ], 
 [
  "schwer", 
  5145398
 ], 
 [
  "Analyse", 
  5129064
 ], 
 [
  "Analyse_NOUN", 
  5129064
 ], 
 [
  "Anspruch_NOUN", 
  5112229
 ], 
 [
  "Anspruch", 
  5112229
 ], 
 [
  "Ergebnisse", 
  5111677
 ], 
 [
  "Ergebnisse_NOUN", 
  5111677
 ], 
 [
  "eher_ADV", 
  5109761
 ], 
 [
  "eher", 
  5109761
 ], 
 [
  "C.", 
  5106356
 ], 
 [
  "Produktion_NOUN", 
  5094493
 ], 
 [
  "Produktion", 
  5094493
 ], 
 [
  "Denken", 
  5077079
 ], 
 [
  "Religion", 
  5075533
 ], 
 [
  "Religion_NOUN", 
  5075533
 ], 
 [
  "entweder", 
  5071940
 ], 
 [
  "Wer", 
  5061507
 ], 
 [
  "Wer_PRON", 
  5061507
 ], 
 [
  "Verhalten", 
  5059765
 ], 
 [
  "Leipzig_NOUN", 
  5058512
 ], 
 [
  "Leipzig", 
  5058512
 ], 
 [
  "mehrere", 
  5053923
 ], 
 [
  "wirtschaftlichen_ADJ", 
  5049496
 ], 
 [
  "wirtschaftlichen", 
  5049496
 ], 
 [
  "Verhalten_NOUN", 
  5047863
 ], 
 [
  "Gebiete", 
  5042717
 ], 
 [
  "Gebiete_NOUN", 
  5042528
 ], 
 [
  "L._NOUN", 
  5039137
 ], 
 [
  "L.", 
  5039137
 ], 
 [
  "selten", 
  5037074
 ], 
 [
  "zuerst_ADV", 
  5034137
 ], 
 [
  "zuerst", 
  5034137
 ], 
 [
  "sozialistischen", 
  5028793
 ], 
 [
  "sozialistischen_ADJ", 
  5028793
 ], 
 [
  "Volkes", 
  5028146
 ], 
 [
  "Volkes_NOUN", 
  5028146
 ], 
 [
  "sagte_VERB", 
  5015301
 ], 
 [
  "sagte", 
  5015301
 ], 
 [
  "Erkenntnis_NOUN", 
  5008206
 ], 
 [
  "Erkenntnis", 
  5008206
 ], 
 [
  "London", 
  5007865
 ], 
 [
  "London_NOUN", 
  5007865
 ], 
 [
  "enth\u00e4lt_VERB", 
  5006430
 ], 
 [
  "enth\u00e4lt", 
  5006430
 ], 
 [
  "hohen", 
  5005742
 ], 
 [
  "hohen_ADJ", 
  5005742
 ], 
 [
  "mehrere_PRON", 
  5005444
 ], 
 [
  "Vergleich", 
  4982354
 ], 
 [
  "Vergleich_NOUN", 
  4982354
 ], 
 [
  "nachdem_CONJ", 
  4979935
 ], 
 [
  "Gruppen_NOUN", 
  4967363
 ], 
 [
  "Gruppen", 
  4967363
 ], 
 [
  "kurz", 
  4964446
 ], 
 [
  "folgt_VERB", 
  4961722
 ], 
 [
  "folgt", 
  4961722
 ], 
 [
  "frei", 
  4952467
 ], 
 [
  "K\u00f6rper", 
  4951299
 ], 
 [
  "C._NOUN", 
  4937466
 ], 
 [
  "Januar_NOUN", 
  4930098
 ], 
 [
  "Januar", 
  4930098
 ], 
 [
  "that_X", 
  4926291
 ], 
 [
  "hin_PRT", 
  4922631
 ], 
 [
  "K\u00f6rper_NOUN", 
  4921120
 ], 
 [
  "Erfahrungen", 
  4920812
 ], 
 [
  "Erfahrungen_NOUN", 
  4920812
 ], 
 [
  "sicher", 
  4915870
 ], 
 [
  "s_X", 
  4913702
 ], 
 [
  "Funktion", 
  4912629
 ], 
 [
  "Funktion_NOUN", 
  4912629
 ], 
 [
  "Reich", 
  4910247
 ], 
 [
  "Dezember_NOUN", 
  4898990
 ], 
 [
  "Dezember", 
  4898990
 ], 
 [
  "Annahme", 
  4895038
 ], 
 [
  "Annahme_NOUN", 
  4895038
 ], 
 [
  "Worte_NOUN", 
  4882117
 ], 
 [
  "Worte", 
  4882117
 ], 
 [
  "entwickelt", 
  4881970
 ], 
 [
  "entwickelt_VERB", 
  4881970
 ], 
 [
  "Reich_NOUN", 
  4881385
 ], 
 [
  "Seine", 
  4880962
 ], 
 [
  "dahin", 
  4880279
 ], 
 [
  "dahin_PRON", 
  4879524
 ], 
 [
  "V.", 
  4876166
 ], 
 [
  "Kapitel_NOUN", 
  4875072
 ], 
 [
  "Kapitel", 
  4875072
 ], 
 [
  "bildet_VERB", 
  4874307
 ], 
 [
  "bildet", 
  4874307
 ], 
 [
  "Bericht", 
  4873342
 ], 
 [
  "Bericht_NOUN", 
  4873342
 ], 
 [
  "\u00fcberall", 
  4873077
 ], 
 [
  "\u00fcberall_ADV", 
  4873077
 ], 
 [
  "inneren", 
  4869664
 ], 
 [
  "inneren_ADJ", 
  4868526
 ], 
 [
  "Stellen", 
  4863805
 ], 
 [
  "que", 
  4863562
 ], 
 [
  "Industrie_NOUN", 
  4861066
 ], 
 [
  "Seine_PRON", 
  4854545
 ], 
 [
  "D.", 
  4848435
 ], 
 [
  "Hans_NOUN", 
  4846295
 ], 
 [
  "Hans", 
  4846295
 ], 
 [
  "Gestalt_NOUN", 
  4843943
 ], 
 [
  "Gestalt", 
  4843943
 ], 
 [
  "I_X", 
  4834708
 ], 
 [
  "bekannt_ADJ", 
  4834119
 ], 
 [
  "D._NOUN", 
  4831876
 ], 
 [
  "enthalten", 
  4826451
 ], 
 [
  "d\u00fcrfte_VERB", 
  4825841
 ], 
 [
  "d\u00fcrfte", 
  4825841
 ], 
 [
  "be_X", 
  4823955
 ], 
 [
  "einfach", 
  4822597
 ], 
 [
  "gesellschaftlichen", 
  4820009
 ], 
 [
  "gesellschaftlichen_ADJ", 
  4820009
 ], 
 [
  "dieselbe_ADJ", 
  4819586
 ], 
 [
  "Vorstellung_NOUN", 
  4818616
 ], 
 [
  "Vorstellung", 
  4818616
 ], 
 [
  "Menge", 
  4814736
 ], 
 [
  "Menge_NOUN", 
  4814736
 ], 
 [
  "des_X", 
  4807090
 ], 
 [
  "Versuche", 
  4805243
 ], 
 [
  "verstehen", 
  4804840
 ], 
 [
  "Versuche_NOUN", 
  4804618
 ], 
 [
  "verstehen_VERB", 
  4804207
 ], 
 [
  "Verwaltung", 
  4793237
 ], 
 [
  "Verwaltung_NOUN", 
  4793237
 ], 
 [
  "S", 
  4793021
 ], 
 [
  "gleiche", 
  4791092
 ], 
 [
  "Schwierigkeiten_NOUN", 
  4790117
 ], 
 [
  "Schwierigkeiten", 
  4790117
 ], 
 [
  "entweder_CONJ", 
  4788629
 ], 
 [
  "k\u00f6nnten_VERB", 
  4785235
 ], 
 [
  "k\u00f6nnten", 
  4785235
 ], 
 [
  "soweit", 
  4782594
 ], 
 [
  "keineswegs", 
  4780172
 ], 
 [
  "keineswegs_ADV", 
  4780172
 ], 
 [
  "Zustand_NOUN", 
  4775687
 ], 
 [
  "Zustand", 
  4775687
 ], 
 [
  "Verf\u00fcgung", 
  4763226
 ], 
 [
  "Verf\u00fcgung_NOUN", 
  4763226
 ], 
 [
  "r", 
  4758243
 ], 
 [
  "New", 
  4753874
 ], 
 [
  "que_X", 
  4752046
 ], 
 [
  "Zeiten", 
  4751161
 ], 
 [
  "Zeiten_NOUN", 
  4751161
 ], 
 [
  "somit", 
  4749029
 ], 
 [
  "somit_ADV", 
  4749029
 ], 
 [
  "Ergebnis_NOUN", 
  4747672
 ], 
 [
  "Ergebnis", 
  4747672
 ], 
 [
  "au\u00dfer", 
  4747243
 ], 
 [
  "Stellen_NOUN", 
  4743934
 ], 
 [
  "Nun", 
  4739341
 ], 
 [
  "Nun_ADV", 
  4736508
 ], 
 [
  "Ihre_PRON", 
  4735882
 ], 
 [
  "Ihre", 
  4735882
 ], 
 [
  "setzt_VERB", 
  4735000
 ], 
 [
  "setzt", 
  4735000
 ], 
 [
  "m\u00fcsse", 
  4730127
 ], 
 [
  "m\u00fcsse_VERB", 
  4730127
 ], 
 [
  "europ\u00e4ischen", 
  4723383
 ], 
 [
  "europ\u00e4ischen_ADJ", 
  4723383
 ], 
 [
  "Prozent", 
  4717410
 ], 
 [
  "Prozent_NOUN", 
  4717410
 ], 
 [
  "gekommen", 
  4715249
 ], 
 [
  "gekommen_VERB", 
  4715249
 ], 
 [
  "treten_VERB", 
  4714453
 ], 
 [
  "treten", 
  4714453
 ], 
 [
  "gleiche_ADJ", 
  4712082
 ], 
 [
  "enthalten_VERB", 
  4706332
 ], 
 [
  "Vor", 
  4705216
 ], 
 [
  "m\u00f6glichst", 
  4700077
 ], 
 [
  "m\u00f6glichst_ADV", 
  4700077
 ], 
 [
  "neu", 
  4699163
 ], 
 [
  "mein", 
  4692067
 ], 
 [
  "mein_PRON", 
  4692067
 ], 
 [
  "neu_ADJ", 
  4691396
 ], 
 [
  "Deutsche_ADJ", 
  4690271
 ], 
 [
  "alte_ADJ", 
  4690119
 ], 
 [
  "alte", 
  4690119
 ], 
 [
  "Verfassung", 
  4690044
 ], 
 [
  "Verfassung_NOUN", 
  4690044
 ], 
 [
  "Mutter_NOUN", 
  4681365
 ], 
 [
  "Mutter", 
  4681365
 ], 
 [
  "Ver\u00e4nderungen_NOUN", 
  4680698
 ], 
 [
  "Ver\u00e4nderungen", 
  4680698
 ], 
 [
  "Februar_NOUN", 
  4675827
 ], 
 [
  "Februar", 
  4675827
 ], 
 [
  "genug_ADV", 
  4662451
 ], 
 [
  "Vater_NOUN", 
  4659314
 ], 
 [
  "Vater", 
  4659314
 ], 
 [
  "meinen", 
  4648863
 ], 
 [
  "damit_CONJ", 
  4643431
 ], 
 [
  "Erscheinung", 
  4635901
 ], 
 [
  "Erscheinung_NOUN", 
  4634457
 ], 
 [
  "betrachtet", 
  4633565
 ], 
 [
  "Tabelle", 
  4629137
 ], 
 [
  "B_X", 
  4627924
 ], 
 [
  "betrachtet_VERB", 
  4626811
 ], 
 [
  "P.", 
  4625822
 ], 
 [
  "Deutschlands", 
  4624370
 ], 
 [
  "Deutschlands_NOUN", 
  4624370
 ], 
 [
  "Tabelle_NOUN", 
  4619278
 ], 
 [
  "entsprechend", 
  4617718
 ], 
 [
  "gro\u00dfer_ADJ", 
  4611937
 ], 
 [
  "gro\u00dfer", 
  4611937
 ], 
 [
  "Gewalt", 
  4611087
 ], 
 [
  "Druck_NOUN", 
  4608109
 ], 
 [
  "Druck", 
  4608109
 ], 
 [
  "Gewalt_NOUN", 
  4599070
 ], 
 [
  "gef\u00fchrt", 
  4591855
 ], 
 [
  "gef\u00fchrt_VERB", 
  4591855
 ], 
 [
  "wesentlichen", 
  4590815
 ], 
 [
  "Prinzip_NOUN", 
  4586148
 ], 
 [
  "Prinzip", 
  4586148
 ], 
 [
  "dieselben", 
  4582324
 ], 
 [
  "gewissen", 
  4580646
 ], 
 [
  "gewissen_ADJ", 
  4580555
 ], 
 [
  "erkl\u00e4ren_VERB", 
  4580285
 ], 
 [
  "erkl\u00e4ren", 
  4580285
 ], 
 [
  "ergeben_VERB", 
  4575167
 ], 
 [
  "ergeben", 
  4575167
 ], 
 [
  "Bewu\u00dftsein_NOUN", 
  4571553
 ], 
 [
  "Bewu\u00dftsein", 
  4571553
 ], 
 [
  "by", 
  4570451
 ], 
 [
  "Gegenwart", 
  4550875
 ], 
 [
  "Gegenwart_NOUN", 
  4550875
 ], 
 [
  "sofort", 
  4548990
 ], 
 [
  "sofort_ADV", 
  4548990
 ], 
 [
  "au\u00dfer_ADP", 
  4541692
 ], 
 [
  "entspricht", 
  4534717
 ], 
 [
  "entspricht_VERB", 
  4534717
 ], 
 [
  "geh\u00f6ren", 
  4533899
 ], 
 [
  "geh\u00f6ren_VERB", 
  4533899
 ], 
 [
  "schwer_ADJ", 
  4532569
 ], 
 [
  "all", 
  4528100
 ], 
 [
  "eine_PRON", 
  4520740
 ], 
 [
  "dafs_VERB", 
  4512538
 ], 
 [
  "demselben", 
  4509442
 ], 
 [
  "gelten", 
  4504583
 ], 
 [
  "gelten_VERB", 
  4504583
 ], 
 [
  "selber", 
  4500259
 ], 
 [
  "selber_ADV", 
  4500259
 ], 
 [
  "Tod_NOUN", 
  4498611
 ], 
 [
  "Tod", 
  4498611
 ], 
 [
  "Denken_NOUN", 
  4483755
 ], 
 [
  "Erde_NOUN", 
  4481975
 ], 
 [
  "Erde", 
  4481975
 ], 
 [
  "Kind", 
  4480950
 ], 
 [
  "Kind_NOUN", 
  4480950
 ], 
 [
  "dasselbe", 
  4480679
 ], 
 [
  "blo\u00df", 
  4476405
 ], 
 [
  "M\u00f6glichkeiten_NOUN", 
  4474857
 ], 
 [
  "M\u00f6glichkeiten", 
  4474857
 ], 
 [
  "einer_PRON", 
  4471809
 ], 
 [
  "Erscheinungen", 
  4471787
 ], 
 [
  "Erscheinungen_NOUN", 
  4471787
 ], 
 [
  "Notwendigkeit_NOUN", 
  4463751
 ], 
 [
  "Notwendigkeit", 
  4463751
 ], 
 [
  "\u00d6sterreich", 
  4457222
 ], 
 [
  "\u00d6sterreich_NOUN", 
  4457222
 ], 
 [
  "Wahl_NOUN", 
  4454842
 ], 
 [
  "Wahl", 
  4454842
 ], 
 [
  "Beginn", 
  4452470
 ], 
 [
  "Beginn_NOUN", 
  4452470
 ], 
 [
  "nahm_VERB", 
  4451026
 ], 
 [
  "nahm", 
  4451026
 ], 
 [
  "Schon", 
  4441370
 ], 
 [
  "Schon_ADV", 
  4441370
 ], 
 [
  "kurz_ADJ", 
  4439238
 ], 
 [
  "un", 
  4437375
 ], 
 [
  "h\u00f6heren", 
  4437232
 ], 
 [
  "h\u00f6heren_ADJ", 
  4437232
 ], 
 [
  "Auge", 
  4431526
 ], 
 [
  "Auge_NOUN", 
  4431526
 ], 
 [
  "V._NOUN", 
  4429075
 ], 
 [
  "Dann", 
  4424911
 ], 
 [
  "Forschung", 
  4422844
 ], 
 [
  "Forschung_NOUN", 
  4422844
 ], 
 [
  "demselben_PRON", 
  4420597
 ], 
 [
  "Dann_ADV", 
  4420172
 ], 
 [
  "H\u00e4lfte", 
  4417537
 ], 
 [
  "H\u00e4lfte_NOUN", 
  4417537
 ], 
 [
  "selten_ADJ", 
  4416885
 ], 
 [
  "heraus", 
  4414277
 ], 
 [
  "Ma\u00dfe", 
  4412266
 ], 
 [
  "Ma\u00dfe_NOUN", 
  4412266
 ], 
 [
  "soziale", 
  4408311
 ], 
 [
  "soziale_ADJ", 
  4408311
 ], 
 [
  "Elemente_NOUN", 
  4408265
 ], 
 [
  "Elemente", 
  4408265
 ], 
 [
  "S._X", 
  4402012
 ], 
 [
  "s._NOUN", 
  4396975
 ], 
 [
  "genannt", 
  4391189
 ], 
 [
  "genannt_VERB", 
  4391189
 ], 
 [
  "Gr\u00fcnden", 
  4390419
 ], 
 [
  "Gr\u00fcnden_NOUN", 
  4390006
 ], 
 [
  "Vertreter_NOUN", 
  4386713
 ], 
 [
  "Vertreter", 
  4386713
 ], 
 [
  "as", 
  4386505
 ], 
 [
  "Verlag", 
  4385646
 ], 
 [
  "Verlag_NOUN", 
  4385646
 ], 
 [
  "Vorstellungen", 
  4385459
 ], 
 [
  "Vorstellungen_NOUN", 
  4385459
 ], 
 [
  "w\u00e4ren", 
  4383698
 ], 
 [
  "w\u00e4ren_VERB", 
  4383698
 ], 
 [
  "Unternehmen", 
  4377706
 ], 
 [
  "Unternehmen_NOUN", 
  4376147
 ], 
 [
  "Ihr_PRON", 
  4364739
 ], 
 [
  "Ihr", 
  4364739
 ], 
 [
  "by_X", 
  4364333
 ], 
 [
  "Gemeinschaft", 
  4361035
 ], 
 [
  "Gemeinschaft_NOUN", 
  4361035
 ], 
 [
  "freien", 
  4356206
 ], 
 [
  "Teile", 
  4355858
 ], 
 [
  "freien_ADJ", 
  4355816
 ], 
 [
  "Teile_NOUN", 
  4355776
 ], 
 [
  "as_X", 
  4353718
 ], 
 [
  "M\u00e4nner_NOUN", 
  4352179
 ], 
 [
  "M\u00e4nner", 
  4352179
 ], 
 [
  "internationalen", 
  4351931
 ], 
 [
  "internationalen_ADJ", 
  4351931
 ], 
 [
  "irgend_ADV", 
  4349125
 ], 
 [
  "irgend", 
  4349125
 ], 
 [
  "Stunden_NOUN", 
  4348597
 ], 
 [
  "Stunden", 
  4348597
 ], 
 [
  "Dem", 
  4345342
 ], 
 [
  "Zweifel", 
  4343947
 ], 
 [
  "Zweifel_NOUN", 
  4343947
 ], 
 [
  "n\u00e4chsten", 
  4340102
 ], 
 [
  "n\u00e4chsten_ADJ", 
  4340096
 ], 
 [
  "besten", 
  4327494
 ], 
 [
  "besten_ADJ", 
  4327489
 ], 
 [
  "blo\u00df_ADV", 
  4325270
 ], 
 [
  "erfolgt_VERB", 
  4324547
 ], 
 [
  "erfolgt", 
  4324547
 ], 
 [
  "wissenschaftlichen", 
  4323655
 ], 
 [
  "wissenschaftlichen_ADJ", 
  4323655
 ], 
 [
  "modernen", 
  4318573
 ], 
 [
  "modernen_ADJ", 
  4318573
 ], 
 [
  "denken", 
  4315864
 ], 
 [
  "denken_VERB", 
  4315747
 ], 
 [
  "versucht", 
  4309532
 ], 
 [
  "versucht_VERB", 
  4298530
 ], 
 [
  "Wilhelm_NOUN", 
  4296737
 ], 
 [
  "Wilhelm", 
  4296737
 ], 
 [
  "erreichen", 
  4283950
 ], 
 [
  "erreichen_VERB", 
  4283893
 ], 
 [
  "unseres_PRON", 
  4283366
 ], 
 [
  "unseres", 
  4283366
 ], 
 [
  "Anteil_NOUN", 
  4275830
 ], 
 [
  "Anteil", 
  4275830
 ], 
 [
  "andererseits", 
  4272612
 ], 
 [
  "andererseits_ADV", 
  4272612
 ], 
 [
  "historischen_ADJ", 
  4261479
 ], 
 [
  "historischen", 
  4261479
 ], 
 [
  "Vernunft_NOUN", 
  4248936
 ], 
 [
  "Vernunft", 
  4248936
 ], 
 [
  "genannten", 
  4242992
 ], 
 [
  "genannten_ADJ", 
  4242992
 ], 
 [
  "wiederum_ADV", 
  4242729
 ], 
 [
  "wiederum", 
  4242729
 ], 
 [
  "niemals", 
  4241675
 ], 
 [
  "niemals_ADV", 
  4241675
 ], 
 [
  "dienen", 
  4236953
 ], 
 [
  "dienen_VERB", 
  4236953
 ], 
 [
  "bringt_VERB", 
  4233118
 ], 
 [
  "bringt", 
  4233118
 ], 
 [
  "behandelt_VERB", 
  4202953
 ], 
 [
  "behandelt", 
  4202953
 ], 
 [
  "ziemlich", 
  4191451
 ], 
 [
  "ziemlich_ADV", 
  4191451
 ], 
 [
  "keiner", 
  4190228
 ], 
 [
  "keiner_PRON", 
  4190228
 ], 
 [
  "z.B.", 
  4187547
 ], 
 [
  "lag_VERB", 
  4183057
 ], 
 [
  "lag", 
  4183057
 ], 
 [
  "Ausbildung", 
  4176157
 ], 
 [
  "Ausbildung_NOUN", 
  4176157
 ], 
 [
  "Blick_NOUN", 
  4171477
 ], 
 [
  "Blick", 
  4171477
 ], 
 [
  "Einf\u00fchrung", 
  4164339
 ], 
 [
  "Einf\u00fchrung_NOUN", 
  4164339
 ], 
 [
  "einzige", 
  4159147
 ], 
 [
  "Begriffe", 
  4155893
 ], 
 [
  "Begriffe_NOUN", 
  4155492
 ], 
 [
  "desselben_VERB", 
  4154755
 ], 
 [
  "St.", 
  4150587
 ], 
 [
  "USA", 
  4149435
 ], 
 [
  "USA_NOUN", 
  4149435
 ], 
 [
  "ff._X", 
  4149237
 ], 
 [
  "Gesetzes_NOUN", 
  4143885
 ], 
 [
  "Gesetzes", 
  4143885
 ], 
 [
  "fr\u00fcheren", 
  4138200
 ], 
 [
  "fr\u00fcheren_ADJ", 
  4138200
 ], 
 [
  "Voraussetzung", 
  4136035
 ], 
 [
  "Voraussetzung_NOUN", 
  4136035
 ], 
 [
  "Antwort", 
  4133239
 ], 
 [
  "Antwort_NOUN", 
  4133239
 ], 
 [
  "setzen_VERB", 
  4133039
 ], 
 [
  "setzen", 
  4133039
 ], 
 [
  "Sch\u00fcler", 
  4132458
 ], 
 [
  "Sch\u00fcler_NOUN", 
  4132458
 ], 
 [
  "Punkt", 
  4122949
 ], 
 [
  "Punkt_NOUN", 
  4122949
 ], 
 [
  "P._NOUN", 
  4120339
 ], 
 [
  "Vor_ADP", 
  4116817
 ], 
 [
  "Forderung_NOUN", 
  4115633
 ], 
 [
  "Forderung", 
  4115633
 ], 
 [
  "n\u00e4her", 
  4113953
 ], 
 [
  "Zusammenarbeit_NOUN", 
  4108572
 ], 
 [
  "Zusammenarbeit", 
  4108572
 ], 
 [
  "Verhandlungen_NOUN", 
  4107269
 ], 
 [
  "Verhandlungen", 
  4107269
 ], 
 [
  "A_NOUN", 
  4106057
 ], 
 [
  "obwohl_CONJ", 
  4105319
 ], 
 [
  "obwohl", 
  4105319
 ], 
 [
  "f\u00fchrte_VERB", 
  4105140
 ], 
 [
  "f\u00fchrte", 
  4105140
 ], 
 [
  "\u00bb_PRT", 
  4103592
 ], 
 [
  "Struktur", 
  4101414
 ], 
 [
  "Verfasser", 
  4097414
 ], 
 [
  "Licht", 
  4097153
 ], 
 [
  "Willen", 
  4093118
 ], 
 [
  "guten", 
  4092094
 ], 
 [
  "guten_ADJ", 
  4092093
 ], 
 [
  "Verfasser_NOUN", 
  4091231
 ], 
 [
  "Willen_NOUN", 
  4090619
 ], 
 [
  "vgl._ADJ", 
  4089544
 ], 
 [
  "Professor", 
  4088422
 ], 
 [
  "Professor_NOUN", 
  4088422
 ], 
 [
  "Existenz_NOUN", 
  4084272
 ], 
 [
  "Existenz", 
  4084272
 ], 
 [
  "Zeichen", 
  4083179
 ], 
 [
  "Zeichen_NOUN", 
  4083179
 ], 
 [
  "Schrift", 
  4070716
 ], 
 [
  "einzige_ADJ", 
  4064891
 ], 
 [
  "wesentlichen_ADJ", 
  4064874
 ], 
 [
  "O.", 
  4064729
 ], 
 [
  "Lehrer_NOUN", 
  4064301
 ], 
 [
  "Lehrer", 
  4064301
 ], 
 [
  "\u2022_NUM", 
  4063581
 ], 
 [
  "h\u00e4lt_VERB", 
  4053010
 ], 
 [
  "h\u00e4lt", 
  4053010
 ], 
 [
  "Schrift_NOUN", 
  4051344
 ], 
 [
  "letzte", 
  4048630
 ], 
 [
  "letzte_ADJ", 
  4048630
 ], 
 [
  "Haltung", 
  4047570
 ], 
 [
  "Haltung_NOUN", 
  4047570
 ], 
 [
  "Struktur_NOUN", 
  4046986
 ], 
 [
  "gr\u00f6\u00dfere_ADJ", 
  4046157
 ], 
 [
  "gr\u00f6\u00dfere", 
  4046157
 ], 
 [
  "Hinsicht_NOUN", 
  4044812
 ], 
 [
  "Hinsicht", 
  4044812
 ], 
 [
  "jenen", 
  4044218
 ], 
 [
  "jenen_PRON", 
  4044218
 ], 
 [
  "diejenigen_PRON", 
  4042192
 ], 
 [
  "diejenigen", 
  4042192
 ], 
 [
  "Ursache", 
  4038282
 ], 
 [
  "Ursache_NOUN", 
  4038282
 ], 
 [
  "i_NUM", 
  4035522
 ], 
 [
  "nationalen", 
  4032554
 ], 
 [
  "nationalen_ADJ", 
  4032539
 ], 
 [
  "Tagen", 
  4029786
 ], 
 [
  "Tagen_NOUN", 
  4029595
 ], 
 [
  "V\u00f6lker", 
  4029352
 ], 
 [
  "V\u00f6lker_NOUN", 
  4029352
 ], 
 [
  "vollst\u00e4ndig_ADJ", 
  4023857
 ], 
 [
  "vollst\u00e4ndig", 
  4023857
 ], 
 [
  "Diskussion", 
  4017735
 ], 
 [
  "Diskussion_NOUN", 
  4017735
 ], 
 [
  "wahrscheinlich_ADJ", 
  4014314
 ], 
 [
  "wahrscheinlich", 
  4014314
 ], 
 [
  "II._ADJ", 
  4012944
 ], 
 [
  "Licht_NOUN", 
  4008825
 ], 
 [
  "nahe", 
  4007307
 ], 
 [
  "fest_PRT", 
  4004563
 ], 
 [
  "Jahres", 
  3996201
 ], 
 [
  "mit_PRT", 
  3995539
 ], 
 [
  "Voraussetzungen_NOUN", 
  3994059
 ], 
 [
  "Voraussetzungen", 
  3994059
 ], 
 [
  "unm\u00f6glich", 
  3990730
 ], 
 [
  "unm\u00f6glich_ADJ", 
  3990730
 ], 
 [
  "innere", 
  3988331
 ], 
 [
  "innere_ADJ", 
  3988303
 ], 
 [
  "gesamten_ADJ", 
  3987964
 ], 
 [
  "gesamten", 
  3987964
 ], 
 [
  "einfach_ADV", 
  3981647
 ], 
 [
  "suchen_VERB", 
  3979064
 ], 
 [
  "suchen", 
  3979064
 ], 
 [
  "Zwecke_NOUN", 
  3978557
 ], 
 [
  "Zwecke", 
  3978557
 ], 
 [
  "Jahres_NOUN", 
  3975618
 ], 
 [
  "offenbar", 
  3970843
 ], 
 [
  "offenbar_ADJ", 
  3970178
 ], 
 [
  "Leute", 
  3965353
 ], 
 [
  "Leute_NOUN", 
  3965353
 ], 
 [
  "relativ", 
  3963261
 ], 
 [
  "relativ_ADJ", 
  3963261
 ], 
 [
  "anderes_PRON", 
  3958658
 ], 
 [
  "Alles", 
  3954728
 ], 
 [
  "geschehen", 
  3948606
 ], 
 [
  "ziehen", 
  3945105
 ], 
 [
  "ziehen_VERB", 
  3945105
 ], 
 [
  "gute_ADJ", 
  3944396
 ], 
 [
  "gute", 
  3944396
 ], 
 [
  "nennen", 
  3941393
 ], 
 [
  "nennen_VERB", 
  3941393
 ], 
 [
  "Umst\u00e4nden_NOUN", 
  3940017
 ], 
 [
  "Umst\u00e4nden", 
  3940017
 ], 
 [
  "rein_ADV", 
  3937668
 ], 
 [
  "geschehen_VERB", 
  3934541
 ], 
 [
  "unseren", 
  3934076
 ], 
 [
  "unseren_PRON", 
  3934076
 ], 
 [
  "unten_ADV", 
  3930846
 ], 
 [
  "unten", 
  3930846
 ], 
 [
  "Geld", 
  3930836
 ], 
 [
  "fr\u00fcher_ADJ", 
  3929479
 ], 
 [
  "Lande", 
  3925769
 ], 
 [
  "Lande_NOUN", 
  3925762
 ], 
 [
  "Gr\u00f6\u00dfe_NOUN", 
  3925736
 ], 
 [
  "Gr\u00f6\u00dfe", 
  3925736
 ], 
 [
  "erw\u00e4hnt", 
  3925567
 ], 
 [
  "erw\u00e4hnt_VERB", 
  3925567
 ], 
 [
  "angenommen_VERB", 
  3923212
 ], 
 [
  "angenommen", 
  3923212
 ], 
 [
  "vorher", 
  3923192
 ], 
 [
  "vorher_ADV", 
  3923192
 ], 
 [
  "Luft", 
  3920735
 ], 
 [
  "lang", 
  3916923
 ], 
 [
  "lang_ADJ", 
  3916923
 ], 
 [
  "Zeitschrift_NOUN", 
  3915723
 ], 
 [
  "Zeitschrift", 
  3915723
 ], 
 [
  "Angaben_NOUN", 
  3913768
 ], 
 [
  "Angaben", 
  3913768
 ], 
 [
  "st\u00e4rker", 
  3903012
 ], 
 [
  "st\u00e4rker_ADJ", 
  3903012
 ], 
 [
  "Haus", 
  3902937
 ], 
 [
  "Schriften", 
  3899825
 ], 
 [
  "Schriften_NOUN", 
  3899825
 ], 
 [
  "Armee", 
  3898067
 ], 
 [
  "Armee_NOUN", 
  3889335
 ], 
 [
  "with", 
  3888426
 ], 
 [
  "Tat", 
  3886670
 ], 
 [
  "Tat_NOUN", 
  3886478
 ], 
 [
  "f\u00fcnf", 
  3883741
 ], 
 [
  "f\u00fcnf_NUM", 
  3883734
 ], 
 [
  "Gelegenheit", 
  3883408
 ], 
 [
  "Gelegenheit_NOUN", 
  3883408
 ], 
 [
  "est", 
  3883392
 ], 
 [
  "Grenze", 
  3882849
 ], 
 [
  "Grenze_NOUN", 
  3882830
 ], 
 [
  "wer", 
  3879355
 ], 
 [
  "wer_PRON", 
  3879355
 ], 
 [
  "neuer_ADJ", 
  3875847
 ], 
 [
  "neuer", 
  3875847
 ], 
 [
  "Stuttgart_NOUN", 
  3875385
 ], 
 [
  "Stuttgart", 
  3875385
 ], 
 [
  "m_X", 
  3873251
 ], 
 [
  "Alles_PRON", 
  3868771
 ], 
 [
  "Sowjetunion", 
  3863382
 ], 
 [
  "Sowjetunion_NOUN", 
  3863382
 ], 
 [
  "tragen", 
  3862329
 ], 
 [
  "tragen_VERB", 
  3861384
 ], 
 [
  "jungen", 
  3851850
 ], 
 [
  "jungen_ADJ", 
  3851487
 ], 
 [
  "un_X", 
  3849672
 ], 
 [
  "Verwendung", 
  3846950
 ], 
 [
  "Verwendung_NOUN", 
  3846950
 ], 
 [
  "gesetzt_VERB", 
  3846343
 ], 
 [
  "gesetzt", 
  3846343
 ], 
 [
  "denselben", 
  3845141
 ], 
 [
  "Hamburg_NOUN", 
  3838286
 ], 
 [
  "Hamburg", 
  3838286
 ], 
 [
  "with_X", 
  3829604
 ], 
 [
  "Luft_NOUN", 
  3823813
 ], 
 [
  "Deutschen_NOUN", 
  3820543
 ], 
 [
  "C", 
  3819783
 ], 
 [
  "Basis", 
  3817511
 ], 
 [
  "hinsichtlich", 
  3815262
 ], 
 [
  "hinsichtlich_ADP", 
  3815262
 ], 
 [
  "gewinnen", 
  3813875
 ], 
 [
  "gewinnen_VERB", 
  3813021
 ], 
 [
  "Basis_NOUN", 
  3808752
 ], 
 [
  "Hrsg.", 
  3808023
 ], 
 [
  "Titel", 
  3803597
 ], 
 [
  "Werte", 
  3803239
 ], 
 [
  "etc._ADV", 
  3802835
 ], 
 [
  "etc.", 
  3802835
 ], 
 [
  "Werte_NOUN", 
  3801512
 ], 
 [
  "gehalten_VERB", 
  3801430
 ], 
 [
  "gehalten", 
  3801430
 ], 
 [
  "Erziehung_NOUN", 
  3801238
 ], 
 [
  "Erziehung", 
  3801238
 ], 
 [
  "geistigen", 
  3796662
 ], 
 [
  "geistigen_ADJ", 
  3796662
 ], 
 [
  "Titel_NOUN", 
  3795820
 ], 
 [
  "Du", 
  3789613
 ], 
 [
  "O._NOUN", 
  3787715
 ], 
 [
  "Ihnen", 
  3786171
 ], 
 [
  "Ihnen_PRON", 
  3786171
 ], 
 [
  "Proze\u00df", 
  3784420
 ], 
 [
  "Proze\u00df_NOUN", 
  3784420
 ], 
 [
  "einerseits", 
  3781342
 ], 
 [
  "einerseits_ADV", 
  3781342
 ], 
 [
  "Hrsg._NOUN", 
  3775036
 ], 
 [
  "Haus_NOUN", 
  3769963
 ], 
 [
  "Text_NOUN", 
  3768302
 ], 
 [
  "Text", 
  3768302
 ], 
 [
  "Wissen", 
  3767863
 ], 
 [
  "jeweils_ADV", 
  3764529
 ], 
 [
  "jeweils", 
  3764529
 ], 
 [
  "V", 
  3763636
 ], 
 [
  "Herren", 
  3762571
 ], 
 [
  "Herren_NOUN", 
  3762571
 ], 
 [
  "Frieden_NOUN", 
  3755602
 ], 
 [
  "Frieden", 
  3755602
 ], 
 [
  "Material", 
  3753452
 ], 
 [
  "Material_NOUN", 
  3753452
 ], 
 [
  "infolge_ADP", 
  3753397
 ], 
 [
  "infolge", 
  3753397
 ], 
 [
  "f\u00e4llt", 
  3745778
 ], 
 [
  "f\u00e4llt_VERB", 
  3745778
 ], 
 [
  "Sozialismus", 
  3738691
 ], 
 [
  "Sozialismus_NOUN", 
  3738691
 ], 
 [
  "stellte_VERB", 
  3735139
 ], 
 [
  "stellte", 
  3735139
 ], 
 [
  "solches_PRON", 
  3729102
 ], 
 [
  "solches", 
  3729102
 ], 
 [
  "Kommission_NOUN", 
  3727065
 ], 
 [
  "Kommission", 
  3727065
 ], 
 [
  "Abschnitt", 
  3724574
 ], 
 [
  "Folgen", 
  3723122
 ], 
 [
  "Folgen_NOUN", 
  3722801
 ], 
 [
  "Ru\u00dfland_NOUN", 
  3721792
 ], 
 [
  "Ru\u00dfland", 
  3721792
 ], 
 [
  "Worten", 
  3717548
 ], 
 [
  "Worten_NOUN", 
  3717548
 ], 
 [
  "Gef\u00fchl", 
  3713936
 ], 
 [
  "Gef\u00fchl_NOUN", 
  3713936
 ], 
 [
  "Geld_NOUN", 
  3713015
 ], 
 [
  "wichtige", 
  3708252
 ], 
 [
  "wichtige_ADJ", 
  3708252
 ], 
 [
  "n\u00e4her_ADJ", 
  3707443
 ], 
 [
  "Polen_NOUN", 
  3703105
 ], 
 [
  "Polen", 
  3703105
 ], 
 [
  "est_X", 
  3699724
 ], 
 [
  "Gemeinde", 
  3697351
 ], 
 [
  "trat", 
  3694043
 ], 
 [
  "trat_VERB", 
  3694043
 ], 
 [
  "Heft", 
  3691203
 ], 
 [
  "Herrschaft_NOUN", 
  3690283
 ], 
 [
  "Herrschaft", 
  3690283
 ], 
 [
  "Heft_NOUN", 
  3686804
 ], 
 [
  "Noch", 
  3684413
 ], 
 [
  "Abschnitt_NOUN", 
  3681950
 ], 
 [
  "hohe_ADJ", 
  3679517
 ], 
 [
  "hohe", 
  3679517
 ], 
 [
  "f", 
  3679229
 ], 
 [
  "Absicht", 
  3677998
 ], 
 [
  "Absicht_NOUN", 
  3677998
 ], 
 [
  "englischen", 
  3677181
 ], 
 [
  "s._X", 
  3677122
 ], 
 [
  "bestimmen", 
  3677096
 ], 
 [
  "bestimmen_VERB", 
  3677096
 ], 
 [
  "englischen_ADJ", 
  3676958
 ], 
 [
  "Eindruck", 
  3673159
 ], 
 [
  "Eindruck_NOUN", 
  3673159
 ], 
 [
  "Dauer_NOUN", 
  3672915
 ], 
 [
  "Dauer", 
  3672915
 ], 
 [
  "entsprechenden", 
  3672183
 ], 
 [
  "entsprechenden_ADJ", 
  3672183
 ], 
 [
  "amerikanischen_ADJ", 
  3670829
 ], 
 [
  "amerikanischen", 
  3670829
 ], 
 [
  "Dem_DET", 
  3665252
 ], 
 [
  "denselben_PRON", 
  3661675
 ], 
 [
  "pro", 
  3659406
 ], 
 [
  "M", 
  3655108
 ], 
 [
  "Wissen_NOUN", 
  3654419
 ], 
 [
  "unterscheiden_VERB", 
  3651700
 ], 
 [
  "unterscheiden", 
  3651700
 ], 
 [
  "zuletzt_ADV", 
  3649999
 ], 
 [
  "zuletzt", 
  3649999
 ], 
 [
  "entstehen", 
  3649182
 ], 
 [
  "Bezug_NOUN", 
  3649103
 ], 
 [
  "Bezug", 
  3649103
 ], 
 [
  "entstehen_VERB", 
  3647247
 ], 
 [
  "Leistungen_NOUN", 
  3638715
 ], 
 [
  "Leistungen", 
  3638715
 ], 
 [
  "\u00fcber_ADV", 
  3636624
 ], 
 [
  "zeigte_VERB", 
  3636347
 ], 
 [
  "zeigte", 
  3636347
 ], 
 [
  "schaffen", 
  3633674
 ], 
 [
  "schaffen_VERB", 
  3633618
 ], 
 [
  "Masse_NOUN", 
  3630340
 ], 
 [
  "Masse", 
  3630340
 ], 
 [
  "Umfang", 
  3627177
 ], 
 [
  "Umfang_NOUN", 
  3627177
 ], 
 [
  "a._PRON", 
  3619245
 ], 
 [
  "Beitrag_NOUN", 
  3614492
 ], 
 [
  "Beitrag", 
  3614492
 ], 
 [
  "Schweiz", 
  3614157
 ], 
 [
  "Schweiz_NOUN", 
  3614157
 ], 
 [
  "Italien_NOUN", 
  3613123
 ], 
 [
  "Italien", 
  3613123
 ], 
 [
  "Gemeinde_NOUN", 
  3613027
 ], 
 [
  "Nation", 
  3609447
 ], 
 [
  "Unterst\u00fctzung_NOUN", 
  3608331
 ], 
 [
  "Unterst\u00fctzung", 
  3608331
 ], 
 [
  "Erst_ADV", 
  3599362
 ], 
 [
  "Erst", 
  3599362
 ], 
 [
  "B\u00fcrger", 
  3597362
 ], 
 [
  "B\u00fcrger_NOUN", 
  3597362
 ], 
 [
  "Kopf_NOUN", 
  3596977
 ], 
 [
  "Kopf", 
  3596977
 ], 
 [
  "Ziele", 
  3594097
 ], 
 [
  "Ziele_NOUN", 
  3594085
 ], 
 [
  "Entstehung_NOUN", 
  3591225
 ], 
 [
  "Entstehung", 
  3591225
 ], 
 [
  "m\u00fc\u00dfte", 
  3586622
 ], 
 [
  "m\u00fc\u00dfte_VERB", 
  3586622
 ], 
 [
  "frei_ADJ", 
  3586608
 ], 
 [
  "Eigenschaften_NOUN", 
  3586446
 ], 
 [
  "Eigenschaften", 
  3586446
 ], 
 [
  "hielt", 
  3584479
 ], 
 [
  "hielt_VERB", 
  3584479
 ], 
 [
  "Preu\u00dfen", 
  3582643
 ], 
 [
  "grossen", 
  3579007
 ], 
 [
  "sogenannten", 
  3578158
 ], 
 [
  "sogenannten_ADJ", 
  3578158
 ], 
 [
  "Ebene_NOUN", 
  3574878
 ], 
 [
  "Ebene", 
  3574878
 ], 
 [
  "St\u00fcck", 
  3572713
 ], 
 [
  "St\u00fcck_NOUN", 
  3572713
 ], 
 [
  "pro_ADP", 
  3572317
 ], 
 [
  "Ort", 
  3569410
 ], 
 [
  "Ort_NOUN", 
  3569410
 ], 
 [
  "erh\u00e4lt_VERB", 
  3565981
 ], 
 [
  "erh\u00e4lt", 
  3565981
 ], 
 [
  "bisherigen", 
  3565256
 ], 
 [
  "bisherigen_ADJ", 
  3565256
 ], 
 [
  "gr\u00f6\u00dferen", 
  3561674
 ], 
 [
  "gr\u00f6\u00dferen_ADJ", 
  3561674
 ], 
 [
  "Platz_NOUN", 
  3553804
 ], 
 [
  "Platz", 
  3553804
 ], 
 [
  "Thema", 
  3552908
 ], 
 [
  "Thema_NOUN", 
  3552908
 ], 
 [
  "grossen_ADJ", 
  3551963
 ], 
 [
  "Forderungen", 
  3548969
 ], 
 [
  "Forderungen_NOUN", 
  3548969
 ], 
 [
  "unserem_PRON", 
  3547063
 ], 
 [
  "unserem", 
  3547063
 ], 
 [
  "hoch", 
  3545338
 ], 
 [
  "Marx_NOUN", 
  3543565
 ], 
 [
  "Marx", 
  3543565
 ], 
 [
  "Technik", 
  3540255
 ], 
 [
  "Technik_NOUN", 
  3540255
 ], 
 [
  "Arten_NOUN", 
  3539757
 ], 
 [
  "Arten", 
  3539757
 ], 
 [
  "Urteil_NOUN", 
  3538257
 ], 
 [
  "Urteil", 
  3538257
 ], 
 [
  "Dichter_NOUN", 
  3537375
 ], 
 [
  "Dichter", 
  3537375
 ], 
 [
  "\u00ab_ADJ", 
  3535050
 ], 
 [
  "technischen_ADJ", 
  3533931
 ], 
 [
  "technischen", 
  3533931
 ], 
 [
  "York_NOUN", 
  3533648
 ], 
 [
  "York", 
  3533648
 ], 
 [
  "Betrachtung", 
  3529203
 ], 
 [
  "Betrachtung_NOUN", 
  3529203
 ], 
 [
  "\u00e0_X", 
  3526350
 ], 
 [
  "\u00e0", 
  3526350
 ], 
 [
  "Standpunkt", 
  3523113
 ], 
 [
  "Standpunkt_NOUN", 
  3523113
 ], 
 [
  "jedenfalls", 
  3521950
 ], 
 [
  "jedenfalls_ADV", 
  3521950
 ], 
 [
  "tats\u00e4chlich", 
  3519532
 ], 
 [
  "Musik", 
  3519210
 ], 
 [
  "Musik_NOUN", 
  3519042
 ], 
 [
  "gezeigt_VERB", 
  3514120
 ], 
 [
  "gezeigt", 
  3514120
 ], 
 [
  "Jugend", 
  3508841
 ], 
 [
  "vollkommen_ADJ", 
  3508399
 ], 
 [
  "vollkommen", 
  3508399
 ], 
 [
  "Nation_NOUN", 
  3507003
 ], 
 [
  "Leitung_NOUN", 
  3506604
 ], 
 [
  "Leitung", 
  3506604
 ], 
 [
  "Preis", 
  3506262
 ], 
 [
  "deutscher", 
  3505097
 ], 
 [
  "deutscher_ADJ", 
  3505092
 ], 
 [
  "Ernst", 
  3504627
 ], 
 [
  "tats\u00e4chlich_ADJ", 
  3504509
 ], 
 [
  "zusammen_ADV", 
  3503118
 ], 
 [
  "starke_ADJ", 
  3498436
 ], 
 [
  "starke", 
  3498436
 ], 
 [
  "Klasse_NOUN", 
  3497001
 ], 
 [
  "Klasse", 
  3497001
 ], 
 [
  "heutigen", 
  3495542
 ], 
 [
  "heutigen_ADJ", 
  3495542
 ], 
 [
  "letzteren", 
  3491956
 ], 
 [
  "Du_PRON", 
  3488674
 ], 
 [
  "Ideen_NOUN", 
  3486047
 ], 
 [
  "Ideen", 
  3486047
 ], 
 [
  "General", 
  3478234
 ], 
 [
  "lange_ADJ", 
  3477659
 ], 
 [
  "Verlauf_NOUN", 
  3469822
 ], 
 [
  "Verlauf", 
  3469822
 ], 
 [
  "entstanden", 
  3467835
 ], 
 [
  "entstanden_VERB", 
  3467835
 ], 
 [
  "Noch_ADV", 
  3464511
 ], 
 [
  "Brief", 
  3458207
 ], 
 [
  "verloren", 
  3457236
 ], 
 [
  "Preu\u00dfen_NOUN", 
  3449542
 ], 
 [
  "meinen_PRON", 
  3445996
 ], 
 [
  "b\u00fcrgerlichen", 
  3444181
 ], 
 [
  "b\u00fcrgerlichen_ADJ", 
  3444181
 ], 
 [
  "Jugend_NOUN", 
  3441041
 ], 
 [
  "Brief_NOUN", 
  3437287
 ], 
 [
  "Institut", 
  3435890
 ], 
 [
  "Institut_NOUN", 
  3435890
 ], 
 [
  "betrachten", 
  3432618
 ], 
 [
  "betrachten_VERB", 
  3432618
 ], 
 [
  "Antrag", 
  3430281
 ], 
 [
  "Antrag_NOUN", 
  3430281
 ], 
 [
  "fehlt", 
  3427631
 ], 
 [
  "fehlt_VERB", 
  3427631
 ], 
 [
  "di", 
  3425105
 ], 
 [
  "Schutz_NOUN", 
  3422460
 ], 
 [
  "Schutz", 
  3422460
 ], 
 [
  "betreffenden", 
  3418675
 ], 
 [
  "Heinrich_NOUN", 
  3414905
 ], 
 [
  "Heinrich", 
  3414905
 ], 
 [
  "Ver\u00e4nderung_NOUN", 
  3413528
 ], 
 [
  "Ver\u00e4nderung", 
  3413528
 ], 
 [
  "betreffenden_ADJ", 
  3411373
 ], 
 [
  "Schritt_NOUN", 
  3409168
 ], 
 [
  "Schritt", 
  3409168
 ], 
 [
  "insofern", 
  3404466
 ], 
 [
  "insofern_ADV", 
  3404466
 ], 
 [
  "Preis_NOUN", 
  3404021
 ], 
 [
  "einander_PRON", 
  3402606
 ], 
 [
  "Zellen_NOUN", 
  3401093
 ], 
 [
  "Zellen", 
  3401093
 ], 
 [
  "Uhr_NOUN", 
  3400501
 ], 
 [
  "Uhr", 
  3400501
 ], 
 [
  "vielfach", 
  3397654
 ], 
 [
  "Landwirtschaft", 
  3397571
 ], 
 [
  "Landwirtschaft_NOUN", 
  3397571
 ], 
 [
  "dritten", 
  3397447
 ], 
 [
  "dritten_ADJ", 
  3397447
 ], 
 [
  "Sein_PRON", 
  3393339
 ], 
 [
  "Gemeinden", 
  3392250
 ], 
 [
  "Gemeinden_NOUN", 
  3392250
 ], 
 [
  "Mark", 
  3391348
 ], 
 [
  "Rechts", 
  3379042
 ], 
 [
  "geschaffen_VERB", 
  3379012
 ], 
 [
  "geschaffen", 
  3379012
 ], 
 [
  "\u00e4hnlich_ADJ", 
  3378006
 ], 
 [
  "\u00e4hnlich", 
  3378006
 ], 
 [
  "R\u00fccksicht", 
  3372490
 ], 
 [
  "R\u00fccksicht_NOUN", 
  3372490
 ], 
 [
  "siehe_VERB", 
  3372358
 ], 
 [
  "siehe", 
  3372358
 ], 
 [
  "kamen", 
  3371386
 ], 
 [
  "kamen_VERB", 
  3371366
 ], 
 [
  "l\u00e4sst", 
  3367023
 ], 
 [
  "Demokratie", 
  3366597
 ], 
 [
  "Demokratie_NOUN", 
  3366597
 ], 
 [
  "gehabt_VERB", 
  3359014
 ], 
 [
  "gehabt", 
  3359014
 ], 
 [
  "leben", 
  3357182
 ], 
 [
  "gr\u00f6\u00dften_ADJ", 
  3355241
 ], 
 [
  "gr\u00f6\u00dften", 
  3355241
 ], 
 [
  "verwendet_VERB", 
  3354403
 ], 
 [
  "verwendet", 
  3354403
 ], 
 [
  "l\u00e4sst_VERB", 
  3354131
 ], 
 [
  "Mark_NOUN", 
  3352358
 ], 
 [
  "kennen", 
  3350534
 ], 
 [
  "kennen_VERB", 
  3350534
 ], 
 [
  "staatlichen_ADJ", 
  3350448
 ], 
 [
  "staatlichen", 
  3350448
 ], 
 [
  "Methoden_NOUN", 
  3350158
 ], 
 [
  "Methoden", 
  3350158
 ], 
 [
  "Stand", 
  3349318
 ], 
 [
  "F\u00fchrung", 
  3348935
 ], 
 [
  "F\u00fchrung_NOUN", 
  3348935
 ], 
 [
  "\u00bb_PRON", 
  3347838
 ], 
 [
  "erwarten", 
  3342460
 ], 
 [
  "erwarten_VERB", 
  3342047
 ], 
 [
  "Da_ADV", 
  3340992
 ], 
 [
  "Anm.", 
  3335110
 ], 
 [
  "leben_VERB", 
  3335039
 ], 
 [
  "Beitr\u00e4ge", 
  3333948
 ], 
 [
  "Beitr\u00e4ge_NOUN", 
  3333948
 ], 
 [
  "Augenblick_NOUN", 
  3331213
 ], 
 [
  "Augenblick", 
  3331213
 ], 
 [
  "geschieht", 
  3326838
 ], 
 [
  "geschieht_VERB", 
  3326838
 ], 
 [
  "Gebrauch", 
  3326308
 ], 
 [
  "Gebrauch_NOUN", 
  3326308
 ], 
 [
  "vertreten", 
  3324785
 ], 
 [
  "wichtigsten_ADJ", 
  3323470
 ], 
 [
  "wichtigsten", 
  3323470
 ], 
 [
  "Glauben", 
  3322969
 ], 
 [
  "ausschlie\u00dflich", 
  3321955
 ], 
 [
  "all_PRON", 
  3319997
 ], 
 [
  "Minister", 
  3319791
 ], 
 [
  "Minister_NOUN", 
  3319791
 ], 
 [
  "Dazu", 
  3319053
 ], 
 [
  "Dazu_PRON", 
  3318993
 ], 
 [
  "voll", 
  3317713
 ], 
 [
  "Juden_NOUN", 
  3314435
 ], 
 [
  "Juden", 
  3314435
 ], 
 [
  "\u00f6ffentliche", 
  3313484
 ], 
 [
  "vertreten_VERB", 
  3305125
 ], 
 [
  "erforderlich_ADJ", 
  3303173
 ], 
 [
  "erforderlich", 
  3303173
 ], 
 [
  "ausschlie\u00dflich_ADV", 
  3298916
 ], 
 [
  "mu\u00dften", 
  3296453
 ], 
 [
  "mu\u00dften_VERB", 
  3296453
 ], 
 [
  "wirtschaftliche_ADJ", 
  3295606
 ], 
 [
  "wirtschaftliche", 
  3295606
 ], 
 [
  "N.", 
  3288919
 ], 
 [
  "Geistes", 
  3286755
 ], 
 [
  "S_X", 
  3284661
 ], 
 [
  "gemeinsamen", 
  3283996
 ], 
 [
  "gemeinsamen_ADJ", 
  3283996
 ], 
 [
  "gleicher_ADJ", 
  3279343
 ], 
 [
  "gleicher", 
  3279343
 ], 
 [
  "besitzen_VERB", 
  3274862
 ], 
 [
  "besitzen", 
  3274862
 ], 
 [
  "besitzt_VERB", 
  3272640
 ], 
 [
  "besitzt", 
  3272640
 ], 
 [
  "gro\u00df", 
  3271236
 ], 
 [
  "Ernst_NOUN", 
  3269774
 ], 
 [
  "Widerspruch_NOUN", 
  3267875
 ], 
 [
  "Widerspruch", 
  3267875
 ], 
 [
  "bereit", 
  3263883
 ], 
 [
  "Berliner", 
  3262698
 ], 
 [
  "g_NOUN", 
  3260638
 ], 
 [
  "g", 
  3260638
 ], 
 [
  "insgesamt_ADV", 
  3257759
 ], 
 [
  "insgesamt", 
  3257759
 ], 
 [
  "gro\u00df_ADJ", 
  3257400
 ], 
 [
  "verschiedener_ADJ", 
  3256868
 ], 
 [
  "verschiedener", 
  3256868
 ], 
 [
  "wenigen_PRON", 
  3256771
 ], 
 [
  "wenigen", 
  3256771
 ], 
 [
  "La", 
  3255484
 ], 
 [
  "Anm._NOUN", 
  3254860
 ], 
 [
  "Sohn_NOUN", 
  3253823
 ], 
 [
  "Sohn", 
  3253823
 ], 
 [
  "Vergangenheit_NOUN", 
  3253758
 ], 
 [
  "Vergangenheit", 
  3253758
 ], 
 [
  "ausdr\u00fccklich", 
  3253102
 ], 
 [
  "ausdr\u00fccklich_ADJ", 
  3253102
 ], 
 [
  "begr\u00fcndet", 
  3252691
 ], 
 [
  "dar", 
  3251168
 ], 
 [
  "dar_PRT", 
  3251168
 ], 
 [
  "Truppen", 
  3249150
 ], 
 [
  "Truppen_NOUN", 
  3249150
 ], 
 [
  "fr\u00fcher_ADV", 
  3247793
 ], 
 [
  "qui", 
  3246319
 ], 
 [
  "Gr\u00fcnde", 
  3240251
 ], 
 [
  "Gr\u00fcnde_NOUN", 
  3240251
 ], 
 [
  "\u00f6ffentliche_ADJ", 
  3239329
 ], 
 [
  "fort", 
  3238920
 ], 
 [
  "begr\u00fcndet_VERB", 
  3238442
 ], 
 [
  "bestehenden", 
  3237485
 ], 
 [
  "bestehenden_ADJ", 
  3237485
 ], 
 [
  "aufgenommen", 
  3236258
 ], 
 [
  "Alter", 
  3233389
 ], 
 [
  "direkt_ADJ", 
  3231315
 ], 
 [
  "direkt", 
  3231315
 ], 
 [
  "entgegen", 
  3228127
 ], 
 [
  "Anerkennung", 
  3227746
 ], 
 [
  "Anerkennung_NOUN", 
  3227746
 ], 
 [
  "verstanden", 
  3224376
 ], 
 [
  "verstanden_VERB", 
  3224376
 ], 
 [
  "h\u00f6chsten", 
  3223982
 ], 
 [
  "h\u00f6chsten_ADJ", 
  3223982
 ], 
 [
  "Glauben_NOUN", 
  3219781
 ], 
 [
  "schnell", 
  3219751
 ], 
 [
  "schnell_ADJ", 
  3219751
 ], 
 [
  "Durchf\u00fchrung_NOUN", 
  3218573
 ], 
 [
  "Durchf\u00fchrung", 
  3218573
 ], 
 [
  "verschieden", 
  3216624
 ], 
 [
  "Bau", 
  3215964
 ], 
 [
  "aufgenommen_VERB", 
  3215219
 ], 
 [
  "wenige_PRON", 
  3213163
 ], 
 [
  "wenige", 
  3213163
 ], 
 [
  "mindestens", 
  3212925
 ], 
 [
  "mindestens_ADV", 
  3212925
 ], 
 [
  "Autoren_NOUN", 
  3211391
 ], 
 [
  "Autoren", 
  3211391
 ], 
 [
  "Krieges", 
  3211390
 ], 
 [
  "Krieges_NOUN", 
  3211390
 ], 
 [
  "soweit_CONJ", 
  3210151
 ], 
 [
  "Punkte", 
  3209431
 ], 
 [
  "Punkte_NOUN", 
  3209431
 ], 
 [
  "Ausnahme_NOUN", 
  3209426
 ], 
 [
  "Ausnahme", 
  3209426
 ], 
 [
  "qui_X", 
  3209095
 ], 
 [
  "rechten", 
  3205723
 ], 
 [
  "rechten_ADJ", 
  3205432
 ], 
 [
  "Studien", 
  3201658
 ], 
 [
  "Geistes_NOUN", 
  3197658
 ], 
 [
  "Begr\u00fcndung", 
  3195618
 ], 
 [
  "Begr\u00fcndung_NOUN", 
  3195618
 ], 
 [
  "entsprechend_ADJ", 
  3193979
 ], 
 [
  "glaube", 
  3192860
 ], 
 [
  "glaube_VERB", 
  3192446
 ], 
 [
  "brachte_VERB", 
  3192078
 ], 
 [
  "brachte", 
  3192078
 ], 
 [
  "entsprechende_ADJ", 
  3189448
 ], 
 [
  "entsprechende", 
  3189448
 ], 
 [
  "Unterschiede", 
  3188015
 ], 
 [
  "Unterschiede_NOUN", 
  3188015
 ], 
 [
  "bewu\u00dft_ADJ", 
  3185712
 ], 
 [
  "bewu\u00dft", 
  3185712
 ], 
 [
  "Handel", 
  3184343
 ], 
 [
  "Handel_NOUN", 
  3184343
 ], 
 [
  "dans", 
  3183262
 ], 
 [
  "politisch", 
  3183203
 ], 
 [
  "politisch_ADJ", 
  3183203
 ], 
 [
  "dennoch", 
  3182092
 ], 
 [
  "dennoch_ADV", 
  3182092
 ], 
 [
  "Betriebe", 
  3181204
 ], 
 [
  "Betriebe_NOUN", 
  3181204
 ], 
 [
  "Aufnahme", 
  3174684
 ], 
 [
  "Aufnahme_NOUN", 
  3174684
 ], 
 [
  "bietet_VERB", 
  3174594
 ], 
 [
  "bietet", 
  3174594
 ], 
 [
  "dasselbe_PRON", 
  3173706
 ], 
 [
  "andern_ADJ", 
  3170153
 ], 
 [
  "Vertrag_NOUN", 
  3168165
 ], 
 [
  "Vertrag", 
  3168165
 ], 
 [
  "schien", 
  3167967
 ], 
 [
  "schien_VERB", 
  3167967
 ], 
 [
  "wirken", 
  3165597
 ], 
 [
  "erfahren_VERB", 
  3165550
 ], 
 [
  "erfahren", 
  3165550
 ], 
 [
  "Studien_NOUN", 
  3163676
 ], 
 [
  "wirken_VERB", 
  3162621
 ], 
 [
  "Systems", 
  3155876
 ], 
 [
  "Systems_NOUN", 
  3155876
 ], 
 [
  "VI", 
  3153734
 ], 
 [
  "New_X", 
  3149233
 ], 
 [
  "vermag_VERB", 
  3147994
 ], 
 [
  "vermag", 
  3147994
 ], 
 [
  "Anlage", 
  3147029
 ], 
 [
  "teilweise", 
  3145533
 ], 
 [
  "Selbst", 
  3134674
 ], 
 [
  "seyn", 
  3133198
 ], 
 [
  "bedarf", 
  3133031
 ], 
 [
  "or", 
  3130649
 ], 
 [
  "Wochen", 
  3128543
 ], 
 [
  "Wochen_NOUN", 
  3128543
 ], 
 [
  "Berliner_ADJ", 
  3127570
 ], 
 [
  "erf\u00fcllt", 
  3127373
 ], 
 [
  "erf\u00fcllt_VERB", 
  3127373
 ], 
 [
  "Rom_NOUN", 
  3127064
 ], 
 [
  "Rom", 
  3127064
 ], 
 [
  "Anlage_NOUN", 
  3125007
 ], 
 [
  "Alter_NOUN", 
  3124959
 ], 
 [
  "dans_X", 
  3122745
 ], 
 [
  "Stand_NOUN", 
  3120992
 ], 
 [
  "erhielt_VERB", 
  3119648
 ], 
 [
  "erhielt", 
  3119648
 ], 
 [
  "jenes", 
  3119572
 ], 
 [
  "jenes_PRON", 
  3119572
 ], 
 [
  "dargestellt", 
  3119201
 ], 
 [
  "dargestellt_VERB", 
  3119201
 ], 
 [
  "Menschheit", 
  3118412
 ], 
 [
  "Menschheit_NOUN", 
  3118318
 ], 
 [
  "Vorschriften_NOUN", 
  3117593
 ], 
 [
  "Vorschriften", 
  3117593
 ], 
 [
  "letztere", 
  3116047
 ], 
 [
  "eigentlichen_ADJ", 
  3114971
 ], 
 [
  "eigentlichen", 
  3114971
 ], 
 [
  "Gestaltung", 
  3113785
 ], 
 [
  "Gestaltung_NOUN", 
  3113785
 ], 
 [
  "r_X", 
  3113684
 ], 
 [
  "Leistung_NOUN", 
  3108117
 ], 
 [
  "Leistung", 
  3108117
 ], 
 [
  "tr\u00e4gt_VERB", 
  3106781
 ], 
 [
  "tr\u00e4gt", 
  3106781
 ], 
 [
  "bedarf_VERB", 
  3104340
 ], 
 [
  "fallen", 
  3099567
 ], 
 [
  "fallen_VERB", 
  3099164
 ], 
 [
  "Betrieb", 
  3096881
 ], 
 [
  "Betrieb_NOUN", 
  3096331
 ], 
 [
  "\u00fcbrigens_ADV", 
  3093203
 ], 
 [
  "\u00fcbrigens", 
  3093203
 ], 
 [
  "Verst\u00e4ndnis_NOUN", 
  3092736
 ], 
 [
  "Verst\u00e4ndnis", 
  3092736
 ], 
 [
  "nat\u00fcrlichen", 
  3091866
 ], 
 [
  "nat\u00fcrlichen_ADJ", 
  3091866
 ], 
 [
  "beschr\u00e4nkt", 
  3091143
 ], 
 [
  "cm", 
  3090726
 ], 
 [
  "au\u00dferhalb", 
  3089916
 ], 
 [
  "IV.", 
  3088516
 ], 
 [
  "einen_PRON", 
  3084808
 ], 
 [
  "Betracht", 
  3080892
 ], 
 [
  "Aufbau", 
  3079404
 ], 
 [
  "Betracht_NOUN", 
  3074838
 ], 
 [
  "Beispiele_NOUN", 
  3074767
 ], 
 [
  "Beispiele", 
  3074767
 ], 
 [
  "v._NOUN", 
  3072382
 ], 
 [
  "Kenntnis", 
  3071694
 ], 
 [
  "Kenntnis_NOUN", 
  3071694
 ], 
 [
  "beider", 
  3070170
 ], 
 [
  "beider_PRON", 
  3070170
 ], 
 [
  "entsteht", 
  3069623
 ], 
 [
  "entsteht_VERB", 
  3069623
 ], 
 [
  "russischen_ADJ", 
  3068815
 ], 
 [
  "russischen", 
  3068815
 ], 
 [
  "Eltern", 
  3068231
 ], 
 [
  "Eltern_NOUN", 
  3068231
 ], 
 [
  "Beweis_NOUN", 
  3067888
 ], 
 [
  "Beweis", 
  3067888
 ], 
 [
  "beginnt_VERB", 
  3065400
 ], 
 [
  "beginnt", 
  3065400
 ], 
 [
  "Aufbau_NOUN", 
  3065212
 ], 
 [
  "sp\u00e4ter_ADV", 
  3063497
 ], 
 [
  "Franz", 
  3061454
 ], 
 [
  "Franz_NOUN", 
  3061454
 ], 
 [
  "Verh\u00e4ltnissen_NOUN", 
  3060690
 ], 
 [
  "Verh\u00e4ltnissen", 
  3060690
 ], 
 [
  "gesamte_ADJ", 
  3058443
 ], 
 [
  "gesamte", 
  3058443
 ], 
 [
  "Gewicht_NOUN", 
  3057324
 ], 
 [
  "Gewicht", 
  3057324
 ], 
 [
  "Zahlen", 
  3056015
 ], 
 [
  "erw\u00e4hnten", 
  3055115
 ], 
 [
  "une", 
  3053442
 ], 
 [
  "D", 
  3052208
 ], 
 [
  "C_X", 
  3051964
 ], 
 [
  "vielfach_ADV", 
  3046904
 ], 
 [
  "bezeichnen", 
  3046868
 ], 
 [
  "bezeichnen_VERB", 
  3046868
 ], 
 [
  "Zahlen_NOUN", 
  3046359
 ], 
 [
  "folgen", 
  3044273
 ], 
 [
  "Leser", 
  3039065
 ], 
 [
  "Leser_NOUN", 
  3039065
 ], 
 [
  "erschien", 
  3032882
 ], 
 [
  "erschien_VERB", 
  3032882
 ], 
 [
  "praktischen_ADJ", 
  3031159
 ], 
 [
  "praktischen", 
  3031159
 ], 
 [
  "leisten", 
  3030579
 ], 
 [
  "leisten_VERB", 
  3030354
 ], 
 [
  "Bauern", 
  3029504
 ], 
 [
  "Bau_NOUN", 
  3029454
 ], 
 [
  "Pr\u00fcfung_NOUN", 
  3028272
 ], 
 [
  "Pr\u00fcfung", 
  3028272
 ], 
 [
  "Rechts_NOUN", 
  3027918
 ], 
 [
  "begann_VERB", 
  3026246
 ], 
 [
  "begann", 
  3026246
 ], 
 [
  "Ursachen_NOUN", 
  3021451
 ], 
 [
  "Ursachen", 
  3021451
 ], 
 [
  "it", 
  3019996
 ], 
 [
  "Handlung", 
  3019559
 ], 
 [
  "Handlung_NOUN", 
  3019317
 ], 
 [
  "statt_PRT", 
  3018940
 ], 
 [
  "y", 
  3018076
 ], 
 [
  "folgen_VERB", 
  3013980
 ], 
 [
  "schreibt", 
  3009376
 ], 
 [
  "schreibt_VERB", 
  3009376
 ], 
 [
  "glauben", 
  3005853
 ], 
 [
  "Beobachtungen", 
  3003693
 ], 
 [
  "glauben_VERB", 
  3003654
 ], 
 [
  "are", 
  3002417
 ], 
 [
  "Beobachtungen_NOUN", 
  3001441
 ], 
 [
  "Peter_NOUN", 
  3000876
 ], 
 [
  "Peter", 
  3000876
 ]
]